lab-6/virtual_prototype/modules/DMA/DMA.vcd
$date
	Sun Apr 21 19:04:58 2024
$end
$version
	Icarus Verilog
$end
$timescale
	1s
$end
$scope module DMA_tb $end
$var wire 1 ! requestBus $end
$var wire 1 " dataValidOut $end
$var wire 32 # ciResult [31:0] $end
$var wire 1 $ ciDone $end
$var wire 8 % burstSizeOut [7:0] $end
$var wire 1 & beginTransactionOut $end
$var wire 32 ' addressDataOut [31:0] $end
$var reg 32 ( addressDataIn [31:0] $end
$var reg 1 ) busErrorIn $end
$var reg 1 * busGrant $end
$var reg 1 + busyIn $end
$var reg 8 , ciN [7:0] $end
$var reg 1 - ciStart $end
$var reg 32 . ciValueA [31:0] $end
$var reg 32 / ciValueB [31:0] $end
$var reg 1 0 clock $end
$var reg 1 1 dataValidIn $end
$var reg 1 2 endTransactionIn $end
$var reg 1 3 reset $end
$scope module DMA_inst $end
$var wire 32 4 address_data_in [31:0] $end
$var wire 32 5 address_data_out [31:0] $end
$var wire 1 & begin_transaction_out $end
$var wire 8 6 burst_size_out [7:0] $end
$var wire 1 ! busRequest $end
$var wire 1 + busy_in $end
$var wire 4 7 byte_enables_out [3:0] $end
$var wire 8 8 ciN [7:0] $end
$var wire 1 0 clock $end
$var wire 1 1 data_valid_in $end
$var wire 1 " data_valid_out $end
$var wire 1 $ done $end
$var wire 1 2 end_transaction_in $end
$var wire 1 9 end_transaction_out $end
$var wire 1 ) error_in $end
$var wire 5 : feedback [4:0] $end
$var wire 1 * grantRequest $end
$var wire 1 ; is_valid $end
$var wire 1 < read_n_write_out $end
$var wire 1 3 reset $end
$var wire 32 = result [31:0] $end
$var wire 1 - start $end
$var wire 32 > valueA [31:0] $end
$var wire 32 ? valueB [31:0] $end
$var wire 32 @ resultMem [31:0] $end
$var wire 32 A resultDMA [31:0] $end
$var wire 1 B read_n_write_out_s $end
$var wire 1 C memWriteEnable $end
$var wire 32 D memDataOut [31:0] $end
$var wire 32 E memDataIn [31:0] $end
$var wire 9 F memAddress [8:0] $end
$var wire 1 G is_memory $end
$var wire 1 H end_transaction_out_s $end
$var wire 1 I doneMem $end
$var wire 1 J doneDMA $end
$var wire 1 K data_valid_out_s $end
$var wire 32 L dataOutA [31:0] $end
$var wire 4 M byte_enables_out_s [3:0] $end
$var wire 1 N busRequest_s $end
$var wire 8 O burst_size_out_s [7:0] $end
$var wire 1 P begin_transaction_out_s $end
$var wire 32 Q address_data_out_s [31:0] $end
$var parameter 8 R customId $end
$var reg 32 S address_data_in_r [31:0] $end
$var reg 32 T address_data_out_r [31:0] $end
$var reg 1 U begin_transaction_out_r $end
$var reg 8 V burst_size_out_r [7:0] $end
$var reg 1 W busRequest_r $end
$var reg 1 X busy_in_r $end
$var reg 4 Y byte_enables_out_r [3:0] $end
$var reg 2 Z counter [1:0] $end
$var reg 1 [ data_valid_in_r $end
$var reg 1 \ data_valid_out_r $end
$var reg 1 ] end_transaction_in_r $end
$var reg 1 ^ end_transaction_out_r $end
$var reg 1 _ error_in_r $end
$var reg 5 ` feedback_r [4:0] $end
$var reg 1 a grantRequest_r $end
$var reg 1 b read_n_write_out_r $end
$scope module dmaController $end
$var wire 32 c address_data_in [31:0] $end
$var wire 1 X busy_in $end
$var wire 1 0 clock $end
$var wire 3 d configurationBits [2:0] $end
$var wire 1 [ data_valid_in $end
$var wire 1 K data_valid_out $end
$var wire 1 ] end_transaction_in $end
$var wire 1 _ error_in $end
$var wire 5 e feedback [4:0] $end
$var wire 1 a grantRequest $end
$var wire 9 f memAddress [8:0] $end
$var wire 32 g memDataOut [31:0] $end
$var wire 1 3 reset $end
$var wire 1 ; validInstruction $end
$var wire 1 h writeEnable $end
$var wire 32 i writeSettings [31:0] $end
$var wire 32 j tSwap [31:0] $end
$var wire 1 B read_n_write_out $end
$var wire 32 k readSettings [31:0] $end
$var wire 1 C memWriteEnable $end
$var wire 32 l memDataIn [31:0] $end
$var wire 1 H end_transaction_out $end
$var wire 1 m data_valid_sc $end
$var wire 4 n byte_enables_out [3:0] $end
$var wire 1 N busRequest $end
$var wire 8 o burst_size_out [7:0] $end
$var wire 1 P begin_transaction_out $end
$var wire 32 p address_data_out [31:0] $end
$var parameter 3 q C2R $end
$var parameter 3 r CLOSE $end
$var parameter 3 s IDLE $end
$var parameter 3 t INIT $end
$var parameter 3 u READ $end
$var parameter 3 v REQUEST $end
$var parameter 3 w WRITE $end
$var reg 10 x blockCounter [9:0] $end
$var reg 10 y blockSize [9:0] $end
$var reg 9 z burstCounter [8:0] $end
$var reg 9 { burstSize [8:0] $end
$var reg 32 | busAddress [31:0] $end
$var reg 32 } busStart [31:0] $end
$var reg 2 ~ controlRegister [1:0] $end
$var reg 10 !" feedback_r [9:0] $end
$var reg 9 "" memAddress_r [8:0] $end
$var reg 3 #" memCounter [2:0] $end
$var reg 9 $" memoryStart [8:0] $end
$var reg 3 %" state [2:0] $end
$var reg 2 &" statusRegister [1:0] $end
$scope module kModule $end
$var wire 1 '" ciCke $end
$var wire 32 (" ciDataA [31:0] $end
$var wire 32 )" ciDataB [31:0] $end
$var wire 1 *" ciDone $end
$var wire 8 +" ciN [7:0] $end
$var wire 1 ," ciStart $end
$var wire 32 -" s_swappedData [31:0] $end
$var wire 1 ." s_isMyCustomInstruction $end
$var wire 32 /" ciResult [31:0] $end
$var parameter 8 0" customIntructionNr $end
$upscope $end
$upscope $end
$scope module memory $end
$var wire 9 1" addressA [8:0] $end
$var wire 9 2" addressB [8:0] $end
$var wire 1 0 clockA $end
$var wire 1 0 clockB $end
$var wire 32 3" dataInA [31:0] $end
$var wire 32 4" dataInB [31:0] $end
$var wire 1 5" writeEnableA $end
$var wire 1 C writeEnableB $end
$var parameter 32 6" bitwidth $end
$var parameter 32 7" nrOfEntries $end
$var parameter 32 8" readAfterWrite $end
$var reg 32 9" dataOutA [31:0] $end
$var reg 32 :" dataOutB [31:0] $end
$upscope $end
$upscope $end
$upscope $end
$enddefinitions $end
$comment Show the parameter values. $end
$dumpall
b0 8"
b1000000000 7"
b100000 6"
b1000101 0"
b101 w
b1 v
b11 u
b10 t
b0 s
b100 r
b110 q
b1101001 R
$end
#0
$dumpvars
bx :"
bx 9"
05"
bx 4"
b0 3"
bx 2"
b0 1"
bx /"
1."
bx -"
1,"
b1000101 +"
1*"
b0 )"
bx ("
1'"
bx &"
bx %"
bx $"
bx #"
bx ""
bx !"
bx ~
bx }
bx |
bx {
bx z
bx y
bx x
bx p
bx o
bx n
xm
bx l
b0 k
bx j
b0 i
0h
bx g
bx f
bx e
b0 d
bx c
xb
xa
bx `
x_
x^
x]
x\
x[
bx Z
bx Y
xX
xW
bx V
xU
bx T
bx S
bx Q
xP
bx O
xN
bx M
bx L
xK
0J
0I
xH
1G
bx F
bx E
bx D
xC
xB
b0 A
b0 @
b0 ?
b0 >
b0 =
x<
0;
bz :
x9
b0 8
bx 7
bx 6
bx 5
b0 4
13
02
01
00
b0 /
b0 .
0-
b0 ,
0+
0*
0)
b0 (
bx '
x&
bx %
0$
b0 #
x"
x!
$end
#5
b0 j
b0 /"
b0 -"
0K
0m
0C
b0 O
b0 o
0H
0N
0P
0B
b0 Q
b0 p
b0 M
b0 n
b0 ~
b0 {
b0 y
b0 $"
b0 }
b0 F
b0 f
b0 2"
b0 ""
b0 #"
b0 |
b0 ("
b0 x
b0 z
b0 !"
b0 &"
b0 %"
b0 `
b0 e
0!
0W
0"
0\
09
0^
0&
0U
0<
0b
b0 '
b0 5
b0 T
b0 %
b0 6
b0 V
b0 7
b0 Y
b0 D
b0 g
b0 4"
b0 S
b0 c
0a
0_
0X
0[
0]
b0 Z
10
#10
00
#15
10
#20
00
03
#25
bz `
bz e
10
#30
1$
1I
15"
bx #
bx =
1;
bx @
b101 1"
1h
00
1-
b10100 /
b10100 ?
b10100 i
b10100 3"
b1000000101 .
b1000000101 >
b1101001 ,
b1101001 8
#35
b10100 #
b10100 =
b10100 @
b10100 L
b10100 9"
10
#40
0$
0I
05"
0;
b0 1"
0h
00
b0 /
b0 ?
b0 i
b0 3"
b0 .
b0 >
0-
#45
bx #
bx =
bx @
bx L
bx 9"
b1 Z
10
#50
1$
1I
15"
1;
b10000 1"
1h
00
1-
b1101 /
b1101 ?
b1101 i
b1101 3"
b1000010000 .
b1000010000 >
#55
b1101 #
b1101 =
b1101 @
b0 Z
b1101 L
b1101 9"
10
#60
0$
0I
05"
0;
b0 1"
0h
00
b0 /
b0 ?
b0 i
b0 3"
b0 .
b0 >
0-
#65
bx #
bx =
bx @
bx L
bx 9"
b1 Z
10
#70
00
#75
1$
1I
b10 Z
10
#80
00
#85
0$
0I
b0 Z
10
#90
00
#95
b1 Z
10
#100
1;
b101 1"
00
1-
b101 .
b101 >
#105
1$
1I
b10100 #
b10100 =
b10100 @
b10100 L
b10100 9"
b10 Z
10
#110
0;
b0 1"
00
b0 .
b0 >
0-
#115
0$
0I
bx #
bx =
bx @
b0 Z
bx L
bx 9"
10
#120
00
#125
b1 Z
10
#130
00
#135
1$
1I
b10 Z
10
#140
00
#145
0$
0I
b0 Z
10
#150
00
#155
b1 Z
10
#160
00
#165
1$
1I
b10 Z
10
#170
00
#175
0$
0I
b0 Z
10
#180
00
#185
b1 Z
10
#190
00
#195
1$
1I
b10 Z
10
#200
00
#205
0$
0I
b0 Z
10
#210
1$
1J
b0 #
b0 =
b0 @
1;
0G
1h
b1 d
00
1-
b11111111111011111011000 /
b11111111111011111011000 ?
b11111111111011111011000 i
b11111111111011111011000 3"
b11000000000 .
b11000000000 >
#215
b11111111111011111011000 }
10
#220
0$
bx #
bx =
0I
0J
bx @
0;
1G
0h
b0 d
00
b0 /
b0 ?
b0 i
b0 3"
b0 .
b0 >
0-
#225
b11011000111101110111111100000000 j
b11011000111101110111111100000000 /"
b11011000111101110111111100000000 -"
b11111111111011111011000 |
b11111111111011111011000 ("
b1 Z
10
#230
1$
1J
b0 #
b0 =
b0 @
1;
0G
1h
b10 d
00
1-
b101000000000 .
b101000000000 >
#235
b0 Z
10
#240
0$
bx #
bx =
0I
0J
bx @
0;
1G
0h
b0 d
00
b0 .
b0 >
0-
#245
b1 Z
10
#250
1$
1J
b0 #
b0 =
b0 @
1;
0G
1h
b11 d
00
1-
b10000 /
b10000 ?
b10000 i
b10000 3"
b111000000000 .
b111000000000 >
#255
b0 Z
b10000 y
10
#260
0$
bx #
bx =
0I
0J
bx @
0;
1G
0h
b0 d
00
b0 /
b0 ?
b0 i
b0 3"
b0 .
b0 >
0-
#265
b1 Z
10
#270
1$
1J
b0 #
b0 =
b0 @
1;
0G
1h
b100 d
00
1-
b1111 /
b1111 ?
b1111 i
b1111 3"
b1001000000000 .
b1001000000000 >
#275
b0 Z
b10000 {
10
#280
0$
bx #
bx =
0I
0J
bx @
0;
1G
0h
b0 d
00
b0 /
b0 ?
b0 i
b0 3"
b0 .
b0 >
0-
#285
b1 Z
10
#290
1$
1J
b0 #
b0 =
b0 @
1;
0G
1h
b101 d
00
1-
b1 /
b1 ?
b1 i
b1 3"
b1011000000000 .
b1011000000000 >
#295
b0 Z
b1 ~
10
#300
0$
bx #
bx =
0I
0J
bx @
0;
1G
0h
b0 d
00
b0 /
b0 ?
b0 i
b0 3"
b0 .
b0 >
0-
#305
1N
b1 %"
b1 &"
b1 Z
10
#310
00
#315
1$
1I
b10 Z
1!
1W
10
#320
00
#325
0$
0I
b0 Z
10
#330
00
#335
b1 Z
10
#340
00
1*
#345
1$
1I
1a
b10 Z
10
#350
00
0*
#355
0$
0I
b1111 O
b1111 o
0N
1P
1B
b11011000111101110111111100000000 Q
b11011000111101110111111100000000 p
b1111 M
b1111 n
b0 Z
0a
b10 %"
10
#360
00
#365
b0 O
b0 o
0P
0B
b0 Q
b0 p
b0 M
b0 n
b11 %"
0!
0W
1&
1U
1<
1b
b11111111111011111011000 '
b11111111111011111011000 5
b11111111111011111011000 T
b1111 %
b1111 6
b1111 V
b1111 7
b1111 Y
b1 Z
10
#370
00
#375
1$
1I
b10 Z
0&
0U
0<
0b
b0 '
b0 5
b0 T
b0 %
b0 6
b0 V
b0 7
b0 Y
10
#380
00
#385
0$
0I
b0 Z
10
#390
00
#395
b1 Z
10
#400
00
b10 (
b10 4
11
#405
1$
1C
1I
b10000000000000000000000000 D
b10000000000000000000000000 g
b10000000000000000000000000 4"
b10000000000000000000000000 S
b10000000000000000000000000 c
1[
b10 Z
10
#410
b10000000000000000000000000 E
b10000000000000000000000000 l
b10000000000000000000000000 :"
00
b100 (
b100 4
#415
0$
b11011100111101110111111100000000 j
b11011100111101110111111100000000 /"
0I
b11011100111101110111111100000000 -"
b10000000000000000000000000 #
b10000000000000000000000000 =
b10000000000000000000000000 @
b0 Z
b100000000000000000000000000 D
b100000000000000000000000000 g
b100000000000000000000000000 4"
b100000000000000000000000000 S
b100000000000000000000000000 c
b11111111111011111011100 |
b11111111111011111011100 ("
b1 x
b1 z
b1 F
b1 f
b1 2"
b1 ""
b10000000000000000000000000 L
b10000000000000000000000000 9"
10
#420
b100000000000000000000000000 E
b100000000000000000000000000 l
b100000000000000000000000000 :"
00
b110 (
b110 4
#425
b11100000111101110111111100000000 j
b11100000111101110111111100000000 /"
b11100000111101110111111100000000 -"
b10 F
b10 f
b10 2"
b10 ""
b11111111111011111100000 |
b11111111111011111100000 ("
b10 x
b10 z
b110000000000000000000000000 D
b110000000000000000000000000 g
b110000000000000000000000000 4"
b110000000000000000000000000 S
b110000000000000000000000000 c
b1 Z
10
#430
b110000000000000000000000000 E
b110000000000000000000000000 l
b110000000000000000000000000 :"
00
b1000 (
b1000 4
#435
1$
b11100100111101110111111100000000 j
b11100100111101110111111100000000 /"
1I
b11100100111101110111111100000000 -"
b10 Z
b1000000000000000000000000000 D
b1000000000000000000000000000 g
b1000000000000000000000000000 4"
b1000000000000000000000000000 S
b1000000000000000000000000000 c
b11111111111011111100100 |
b11111111111011111100100 ("
b11 x
b11 z
b11 F
b11 f
b11 2"
b11 ""
10
#440
b1000000000000000000000000000 E
b1000000000000000000000000000 l
b1000000000000000000000000000 :"
00
b1010 (
b1010 4
#445
b11101000111101110111111100000000 j
b11101000111101110111111100000000 /"
0$
b11101000111101110111111100000000 -"
0I
b100 F
b100 f
b100 2"
b100 ""
b11111111111011111101000 |
b11111111111011111101000 ("
b100 x
b100 z
b1010000000000000000000000000 D
b1010000000000000000000000000 g
b1010000000000000000000000000 4"
b1010000000000000000000000000 S
b1010000000000000000000000000 c
b0 Z
10
#450
b1010000000000000000000000000 E
b1010000000000000000000000000 l
b1010000000000000000000000000 :"
00
b1100 (
b1100 4
#455
b11101100111101110111111100000000 j
b11101100111101110111111100000000 /"
b11101100111101110111111100000000 -"
b1 Z
b1100000000000000000000000000 D
b1100000000000000000000000000 g
b1100000000000000000000000000 4"
b1100000000000000000000000000 S
b1100000000000000000000000000 c
b11111111111011111101100 |
b11111111111011111101100 ("
b101 x
b101 z
b101 F
b101 f
b101 2"
b101 ""
10
#460
b1100000000000000000000000000 E
b1100000000000000000000000000 l
b1100000000000000000000000000 :"
00
b1110 (
b1110 4
#465
b11110000111101110111111100000000 j
b11110000111101110111111100000000 /"
1$
b11110000111101110111111100000000 -"
1I
b110 F
b110 f
b110 2"
b110 ""
b11111111111011111110000 |
b11111111111011111110000 ("
b110 x
b110 z
b1110000000000000000000000000 D
b1110000000000000000000000000 g
b1110000000000000000000000000 4"
b1110000000000000000000000000 S
b1110000000000000000000000000 c
b10 Z
10
#470
b1110000000000000000000000000 E
b1110000000000000000000000000 l
b1110000000000000000000000000 :"
00
b10000 (
b10000 4
#475
0$
b11110100111101110111111100000000 j
b11110100111101110111111100000000 /"
0I
b11110100111101110111111100000000 -"
b0 Z
b10000000000000000000000000000 D
b10000000000000000000000000000 g
b10000000000000000000000000000 4"
b10000000000000000000000000000 S
b10000000000000000000000000000 c
b11111111111011111110100 |
b11111111111011111110100 ("
b111 x
b111 z
b111 F
b111 f
b111 2"
b111 ""
10
#480
b10000000000000000000000000000 E
b10000000000000000000000000000 l
b10000000000000000000000000000 :"
00
b10010 (
b10010 4
#485
b11111000111101110111111100000000 j
b11111000111101110111111100000000 /"
b11111000111101110111111100000000 -"
b1000 F
b1000 f
b1000 2"
b1000 ""
b11111111111011111111000 |
b11111111111011111111000 ("
b1000 x
b1000 z
b10010000000000000000000000000 D
b10010000000000000000000000000 g
b10010000000000000000000000000 4"
b10010000000000000000000000000 S
b10010000000000000000000000000 c
b1 Z
10
#490
b10010000000000000000000000000 E
b10010000000000000000000000000 l
b10010000000000000000000000000 :"
00
b10100 (
b10100 4
#495
1$
b11111100111101110111111100000000 j
b11111100111101110111111100000000 /"
1I
b11111100111101110111111100000000 -"
b10 Z
b10100000000000000000000000000 D
b10100000000000000000000000000 g
b10100000000000000000000000000 4"
b10100000000000000000000000000 S
b10100000000000000000000000000 c
b11111111111011111111100 |
b11111111111011111111100 ("
b1001 x
b1001 z
b1001 F
b1001 f
b1001 2"
b1001 ""
10
#500
b10100000000000000000000000000 E
b10100000000000000000000000000 l
b10100000000000000000000000000 :"
00
b10110 (
b10110 4
#505
b111110000111111100000000 j
b111110000111111100000000 /"
0$
b111110000111111100000000 -"
0I
b1010 F
b1010 f
b1010 2"
b1010 ""
b11111111111100000000000 |
b11111111111100000000000 ("
b1010 x
b1010 z
b10110000000000000000000000000 D
b10110000000000000000000000000 g
b10110000000000000000000000000 4"
b10110000000000000000000000000 S
b10110000000000000000000000000 c
b0 Z
10
#510
b10110000000000000000000000000 E
b10110000000000000000000000000 l
b10110000000000000000000000000 :"
00
b11000 (
b11000 4
#515
b100111110000111111100000000 j
b100111110000111111100000000 /"
b100111110000111111100000000 -"
b1 Z
b11000000000000000000000000000 D
b11000000000000000000000000000 g
b11000000000000000000000000000 4"
b11000000000000000000000000000 S
b11000000000000000000000000000 c
b11111111111100000000100 |
b11111111111100000000100 ("
b1011 x
b1011 z
b1011 F
b1011 f
b1011 2"
b1011 ""
10
#520
b11000000000000000000000000000 E
b11000000000000000000000000000 l
b11000000000000000000000000000 :"
00
b11010 (
b11010 4
#525
b1000111110000111111100000000 j
b1000111110000111111100000000 /"
1$
b1000111110000111111100000000 -"
1I
b1100 F
b1100 f
b1100 2"
b1100 ""
b11111111111100000001000 |
b11111111111100000001000 ("
b1100 x
b1100 z
b11010000000000000000000000000 D
b11010000000000000000000000000 g
b11010000000000000000000000000 4"
b11010000000000000000000000000 S
b11010000000000000000000000000 c
b10 Z
10
#530
b11010000000000000000000000000 E
b11010000000000000000000000000 l
b11010000000000000000000000000 :"
00
b11100 (
b11100 4
#535
0$
b1100111110000111111100000000 j
b1100111110000111111100000000 /"
0I
b1100111110000111111100000000 -"
b0 Z
b11100000000000000000000000000 D
b11100000000000000000000000000 g
b11100000000000000000000000000 4"
b11100000000000000000000000000 S
b11100000000000000000000000000 c
b11111111111100000001100 |
b11111111111100000001100 ("
b1101 x
b1101 z
b1101 F
b1101 f
b1101 2"
b1101 ""
10
#540
b11100000000000000000000000000 E
b11100000000000000000000000000 l
b11100000000000000000000000000 :"
00
b11110 (
b11110 4
#545
b10000111110000111111100000000 j
b10000111110000111111100000000 /"
b10000111110000111111100000000 -"
b1110 F
b1110 f
b1110 2"
b1110 ""
b11111111111100000010000 |
b11111111111100000010000 ("
b1110 x
b1110 z
b11110000000000000000000000000 D
b11110000000000000000000000000 g
b11110000000000000000000000000 4"
b11110000000000000000000000000 S
b11110000000000000000000000000 c
b1 Z
10
#550
b11110000000000000000000000000 E
b11110000000000000000000000000 l
b11110000000000000000000000000 :"
00
b100000 (
b100000 4
#555
1$
b10100111110000111111100000000 j
b10100111110000111111100000000 /"
1I
b10100111110000111111100000000 -"
b10 Z
b100000000000000000000000000000 D
b100000000000000000000000000000 g
b100000000000000000000000000000 4"
b100000000000000000000000000000 S
b100000000000000000000000000000 c
b11111111111100000010100 |
b11111111111100000010100 ("
b1111 x
b1111 z
b1111 F
b1111 f
b1111 2"
b1111 ""
10
#560
b100000000000000000000000000000 E
b100000000000000000000000000000 l
b100000000000000000000000000000 :"
00
12
01
#565
b11000111110000111111100000000 j
b11000111110000111111100000000 /"
0$
b11000111110000111111100000000 -"
0C
0I
b10000 F
b10000 f
b10000 2"
b10000 ""
b11111111111100000011000 |
b11111111111100000011000 ("
b10000 x
b10000 z
0[
1]
b0 Z
10
#570
b1101 E
b1101 l
b1101 :"
00
02
#575
b1 Z
0]
b0 %"
b0 &"
b0 ~
10
#580
00
#585
b11011000111101110111111100000000 j
b11011000111101110111111100000000 /"
1$
b11011000111101110111111100000000 -"
1I
b0 F
b0 f
b0 2"
b0 ""
b11111111111011111011000 |
b11111111111011111011000 ("
b0 x
b0 z
b10 Z
10
#590
b10000000000000000000000000 E
b10000000000000000000000000 l
b10000000000000000000000000 :"
00
#595
0$
0I
b0 Z
10
#600
00
#605
b1 Z
10
#610
1;
00
1-
#615
1$
1I
b10 Z
10
#620
0;
00
0-
#625
0$
0I
b0 Z
10
#630
1;
b1 1"
00
1-
b1 .
b1 >
#635
b100000000000000000000000000 #
b100000000000000000000000000 =
b100000000000000000000000000 @
b1 Z
b100000000000000000000000000 L
b100000000000000000000000000 9"
10
#640
0;
b0 1"
00
b0 .
b0 >
0-
#645
1$
1I
b10000000000000000000000000 #
b10000000000000000000000000 =
b10000000000000000000000000 @
b10000000000000000000000000 L
b10000000000000000000000000 9"
b10 Z
10
#650
1;
b10 1"
00
1-
b10 .
b10 >
#655
0$
0I
b110000000000000000000000000 #
b110000000000000000000000000 =
b110000000000000000000000000 @
b0 Z
b110000000000000000000000000 L
b110000000000000000000000000 9"
10
#660
0;
b0 1"
00
b0 .
b0 >
0-
#665
b10000000000000000000000000 #
b10000000000000000000000000 =
b10000000000000000000000000 @
b10000000000000000000000000 L
b10000000000000000000000000 9"
b1 Z
10
#670
1;
b11 1"
00
1-
b11 .
b11 >
#675
1$
1I
b1000000000000000000000000000 #
b1000000000000000000000000000 =
b1000000000000000000000000000 @
b10 Z
b1000000000000000000000000000 L
b1000000000000000000000000000 9"
10
#680
0;
b0 1"
00
b0 .
b0 >
0-
#685
0$
0I
b10000000000000000000000000 #
b10000000000000000000000000 =
b10000000000000000000000000 @
b10000000000000000000000000 L
b10000000000000000000000000 9"
b0 Z
10
#690
1;
b100 1"
00
1-
b100 .
b100 >
#695
b1010000000000000000000000000 #
b1010000000000000000000000000 =
b1010000000000000000000000000 @
b1 Z
b1010000000000000000000000000 L
b1010000000000000000000000000 9"
10
#700
0;
b0 1"
00
b0 .
b0 >
0-
#705
1$
1I
b10000000000000000000000000 #
b10000000000000000000000000 =
b10000000000000000000000000 @
b10000000000000000000000000 L
b10000000000000000000000000 9"
b10 Z
10
#710
1;
b101 1"
00
1-
b101 .
b101 >
#715
0$
0I
b1100000000000000000000000000 #
b1100000000000000000000000000 =
b1100000000000000000000000000 @
b0 Z
b1100000000000000000000000000 L
b1100000000000000000000000000 9"
10
#720
0;
b0 1"
00
b0 .
b0 >
0-
#725
b10000000000000000000000000 #
b10000000000000000000000000 =
b10000000000000000000000000 @
b10000000000000000000000000 L
b10000000000000000000000000 9"
b1 Z
10
#730
1;
b110 1"
00
1-
b110 .
b110 >
#735
1$
1I
b1110000000000000000000000000 #
b1110000000000000000000000000 =
b1110000000000000000000000000 @
b10 Z
b1110000000000000000000000000 L
b1110000000000000000000000000 9"
10
#740
0;
b0 1"
00
b0 .
b0 >
0-
#745
0$
0I
b10000000000000000000000000 #
b10000000000000000000000000 =
b10000000000000000000000000 @
b10000000000000000000000000 L
b10000000000000000000000000 9"
b0 Z
10
#750
1;
b111 1"
00
1-
b111 .
b111 >
#755
b10000000000000000000000000000 #
b10000000000000000000000000000 =
b10000000000000000000000000000 @
b1 Z
b10000000000000000000000000000 L
b10000000000000000000000000000 9"
10
#760
0;
b0 1"
00
b0 .
b0 >
0-
#765
1$
1I
b10000000000000000000000000 #
b10000000000000000000000000 =
b10000000000000000000000000 @
b10000000000000000000000000 L
b10000000000000000000000000 9"
b10 Z
10
#770
1;
b1000 1"
00
1-
b1000 .
b1000 >
#775
0$
0I
b10010000000000000000000000000 #
b10010000000000000000000000000 =
b10010000000000000000000000000 @
b0 Z
b10010000000000000000000000000 L
b10010000000000000000000000000 9"
10
#780
0;
b0 1"
00
b0 .
b0 >
0-
#785
b10000000000000000000000000 #
b10000000000000000000000000 =
b10000000000000000000000000 @
b10000000000000000000000000 L
b10000000000000000000000000 9"
b1 Z
10
#790
1;
b1001 1"
00
1-
b1001 .
b1001 >
#795
1$
1I
b10100000000000000000000000000 #
b10100000000000000000000000000 =
b10100000000000000000000000000 @
b10 Z
b10100000000000000000000000000 L
b10100000000000000000000000000 9"
10
#800
0;
b0 1"
00
b0 .
b0 >
0-
#805
0$
0I
b10000000000000000000000000 #
b10000000000000000000000000 =
b10000000000000000000000000 @
b10000000000000000000000000 L
b10000000000000000000000000 9"
b0 Z
10
#810
1;
b1010 1"
00
1-
b1010 .
b1010 >
#815
b10110000000000000000000000000 #
b10110000000000000000000000000 =
b10110000000000000000000000000 @
b1 Z
b10110000000000000000000000000 L
b10110000000000000000000000000 9"
10
#820
0;
b0 1"
00
b0 .
b0 >
0-
#825
1$
1I
b10000000000000000000000000 #
b10000000000000000000000000 =
b10000000000000000000000000 @
b10000000000000000000000000 L
b10000000000000000000000000 9"
b10 Z
10
#830
1;
b1011 1"
00
1-
b1011 .
b1011 >
#835
0$
0I
b11000000000000000000000000000 #
b11000000000000000000000000000 =
b11000000000000000000000000000 @
b0 Z
b11000000000000000000000000000 L
b11000000000000000000000000000 9"
10
#840
0;
b0 1"
00
b0 .
b0 >
0-
#845
b10000000000000000000000000 #
b10000000000000000000000000 =
b10000000000000000000000000 @
b10000000000000000000000000 L
b10000000000000000000000000 9"
b1 Z
10
#850
1;
b1100 1"
00
1-
b1100 .
b1100 >
#855
1$
1I
b11010000000000000000000000000 #
b11010000000000000000000000000 =
b11010000000000000000000000000 @
b10 Z
b11010000000000000000000000000 L
b11010000000000000000000000000 9"
10
#860
0;
b0 1"
00
b0 .
b0 >
0-
#865
0$
0I
b10000000000000000000000000 #
b10000000000000000000000000 =
b10000000000000000000000000 @
b10000000000000000000000000 L
b10000000000000000000000000 9"
b0 Z
10
#870
1;
b1101 1"
00
1-
b1101 .
b1101 >
#875
b11100000000000000000000000000 #
b11100000000000000000000000000 =
b11100000000000000000000000000 @
b1 Z
b11100000000000000000000000000 L
b11100000000000000000000000000 9"
10
#880
0;
b0 1"
00
b0 .
b0 >
0-
#885
1$
1I
b10000000000000000000000000 #
b10000000000000000000000000 =
b10000000000000000000000000 @
b10000000000000000000000000 L
b10000000000000000000000000 9"
b10 Z
10
#890
1;
b1110 1"
00
1-
b1110 .
b1110 >
#895
0$
0I
b11110000000000000000000000000 #
b11110000000000000000000000000 =
b11110000000000000000000000000 @
b0 Z
b11110000000000000000000000000 L
b11110000000000000000000000000 9"
10
#900
0;
b0 1"
00
b0 .
b0 >
0-
#905
b10000000000000000000000000 #
b10000000000000000000000000 =
b10000000000000000000000000 @
b10000000000000000000000000 L
b10000000000000000000000000 9"
b1 Z
10
#910
1;
b1111 1"
00
1-
b1111 .
b1111 >
#915
1$
1I
b100000000000000000000000000000 #
b100000000000000000000000000000 =
b100000000000000000000000000000 @
b10 Z
b100000000000000000000000000000 L
b100000000000000000000000000000 9"
10
#920
0;
b0 1"
00
b0 .
b0 >
0-
#925
0$
0I
b10000000000000000000000000 #
b10000000000000000000000000 =
b10000000000000000000000000 @
b10000000000000000000000000 L
b10000000000000000000000000 9"
b0 Z
10
#930
00
#935
b1 Z
10
#940
00
#945
1$
1I
b10 Z
10
#950
00
#955
0$
0I
b0 Z
10
#960
00
#965
b1 Z
10
#970
1$
b11111111111011111011000 A
b11111111111011111011000 k
1J
b11111111111011111011000 #
b11111111111011111011000 =
b0 @
1;
0G
b1 d
00
1-
b1 /
b1 ?
b1 i
b1 3"
b10000000000 .
b10000000000 >
#975
b10 Z
10
#980
1I
b10000000000000000000000000 #
b10000000000000000000000000 =
0J
b10000000000000000000000000 @
b0 A
b0 k
0;
1G
b0 d
00
b0 /
b0 ?
b0 i
b0 3"
b0 .
b0 >
0-
#985
0$
0I
b0 Z
10
#990
1$
1J
b0 #
b0 =
b0 @
1;
0G
b10 d
00
1-
b1 /
b1 ?
b1 i
b1 3"
b100000000000 .
b100000000000 >
#995
b1 Z
10
#1000
0$
b10000000000000000000000000 #
b10000000000000000000000000 =
0J
b10000000000000000000000000 @
0;
1G
b0 d
00
b0 /
b0 ?
b0 i
b0 3"
b0 .
b0 >
0-
#1005
1$
1I
b10 Z
10
#1010
b10000 A
b10000 k
1J
1$
b10000 #
b10000 =
0I
b0 @
1;
0G
b11 d
00
1-
b1 /
b1 ?
b1 i
b1 3"
b110000000000 .
b110000000000 >
#1015
b0 Z
10
#1020
b0 A
b0 k
0$
b10000000000000000000000000 #
b10000000000000000000000000 =
0J
b10000000000000000000000000 @
0;
1G
b0 d
00
b0 /
b0 ?
b0 i
b0 3"
b0 .
b0 >
0-
#1025
b1 Z
10
#1030
1$
b1111 A
b1111 k
1J
b1111 #
b1111 =
b0 @
1;
0G
b100 d
00
1-
b1 /
b1 ?
b1 i
b1 3"
b1000000000000 .
b1000000000000 >
#1035
b10 Z
10
#1040
b0 A
b0 k
b10000000000000000000000000 #
b10000000000000000000000000 =
1I
0J
b10000000000000000000000000 @
0;
1G
b0 d
00
b0 /
b0 ?
b0 i
b0 3"
b0 .
b0 >
0-
#1045
0$
0I
b0 Z
10
#1050
1$
1J
b0 #
b0 =
b0 @
1;
0G
b101 d
00
1-
b1 /
b1 ?
b1 i
b1 3"
b1010000000000 .
b1010000000000 >
#1055
b1 Z
10
