lab-6/virtual_prototype/modules/DMA/ramDmaCi.vcd
$date
	Wed Apr 17 20:48:56 2024
$end
$version
	Icarus Verilog
$end
$timescale
	1ps
$end
$scope module dma_controller_tb $end
$var wire 32 ! addressData [31:0] $end
$var wire 1 " dataValid $end
$var wire 32 # result [31:0] $end
$var wire 1 $ requestTransaction $end
$var wire 1 % done $end
$var wire 1 & dataValidOut $end
$var wire 8 ' burstSizeOut [7:0] $end
$var wire 1 ( beginTransactionOut $end
$var wire 32 ) addressDataOut [31:0] $end
$var parameter 8 * customIdCPU $end
$var parameter 8 + customIdDMA $end
$var reg 32 , addressDataIn [31:0] $end
$var reg 1 - beginTransactionIn $end
$var reg 1 . busErrorIn $end
$var reg 1 / busyBitIn $end
$var reg 8 0 ciN [7:0] $end
$var reg 1 1 clock $end
$var reg 1 2 dataValidIn $end
$var reg 1 3 endTransactionIn $end
$var reg 1 4 reset $end
$var reg 1 5 start $end
$var reg 1 6 transactionGranted $end
$var reg 32 7 valueA [31:0] $end
$var reg 32 8 valueB [31:0] $end
$var integer 32 9 i [31:0] $end
$scope module uut $end
$var wire 32 : address_data_in [31:0] $end
$var wire 1 / busy_in $end
$var wire 8 ; ciN [7:0] $end
$var wire 1 1 clock $end
$var wire 1 " data_valid_in $end
$var wire 1 % done $end
$var wire 1 3 end_transaction_in $end
$var wire 1 . error_in $end
$var wire 1 6 grantRequest $end
$var wire 1 < is_valid $end
$var wire 1 4 reset $end
$var wire 32 = result [31:0] $end
$var wire 1 5 start $end
$var wire 32 > valueA [31:0] $end
$var wire 32 ? valueB [31:0] $end
$var wire 2 @ status [1:0] $end
$var wire 32 A resultMem [31:0] $end
$var wire 32 B resultDMA [31:0] $end
$var wire 1 C read_n_write_out $end
$var wire 1 D memWriteEnable $end
$var wire 32 E memDataOut [31:0] $end
$var wire 32 F memDataIn [31:0] $end
$var wire 9 G memAddress [8:0] $end
$var wire 1 H is_memory $end
$var wire 1 I end_transaction_out $end
$var wire 1 J doneMem $end
$var wire 1 K doneDMA $end
$var wire 1 & data_valid_out $end
$var wire 32 L dataOutA [31:0] $end
$var wire 4 M byte_enables_out [3:0] $end
$var wire 1 $ busRequest $end
$var wire 8 N burst_size_out [7:0] $end
$var wire 1 ( begin_transaction_out $end
$var wire 32 O address_data_out [31:0] $end
$var parameter 8 P customId $end
$var reg 32 Q address_data_in_r [31:0] $end
$var reg 1 R busy_in_r $end
$var reg 2 S counter [1:0] $end
$var reg 1 T data_valid_in_r $end
$var reg 1 U end_transaction_in_r $end
$var reg 1 V error_in_r $end
$var reg 1 W grantRequest_r $end
$scope module dmaController $end
$var wire 32 X address_data_in [31:0] $end
$var wire 1 R busy_in $end
$var wire 1 1 clock $end
$var wire 3 Y configurationBits [2:0] $end
$var wire 1 T data_valid_in $end
$var wire 1 & data_valid_out $end
$var wire 1 U end_transaction_in $end
$var wire 1 V error_in $end
$var wire 1 W grantRequest $end
$var wire 9 Z memAddress [8:0] $end
$var wire 32 [ memDataOut [31:0] $end
$var wire 1 4 reset $end
$var wire 2 \ status [1:0] $end
$var wire 1 < validInstruction $end
$var wire 1 ] writeEnable $end
$var wire 32 ^ writeSettings [31:0] $end
$var wire 1 C read_n_write_out $end
$var wire 32 _ readSettings [31:0] $end
$var wire 1 D memWriteEnable $end
$var wire 32 ` memDataIn [31:0] $end
$var wire 1 I end_transaction_out $end
$var wire 1 a data_valid_sc $end
$var wire 4 b byte_enables_out [3:0] $end
$var wire 1 $ busRequest $end
$var wire 8 c burst_size_out [7:0] $end
$var wire 1 ( begin_transaction_out $end
$var wire 32 d address_data_out [31:0] $end
$var parameter 3 e C2R $end
$var parameter 3 f CLOSE $end
$var parameter 3 g IDLE $end
$var parameter 3 h INIT $end
$var parameter 3 i READ $end
$var parameter 3 j REQUEST $end
$var parameter 3 k WRITE $end
$var reg 10 l blockCounter [9:0] $end
$var reg 10 m blockSize [9:0] $end
$var reg 9 n burstCounter [8:0] $end
$var reg 9 o burstSize [8:0] $end
$var reg 32 p busAddress [31:0] $end
$var reg 32 q busStart [31:0] $end
$var reg 2 r controlRegister [1:0] $end
$var reg 9 s memAddress_r [8:0] $end
$var reg 3 t memCounter [0:2] $end
$var reg 9 u memoryStart [8:0] $end
$var reg 3 v state [2:0] $end
$var reg 2 w statusRegister [1:0] $end
$upscope $end
$scope module memory $end
$var wire 9 x addressA [8:0] $end
$var wire 9 y addressB [8:0] $end
$var wire 1 1 clockA $end
$var wire 1 z clockB $end
$var wire 32 { dataInA [31:0] $end
$var wire 32 | dataInB [31:0] $end
$var wire 1 } writeEnableA $end
$var wire 1 D writeEnableB $end
$var parameter 32 ~ bitwidth $end
$var parameter 32 !" nrOfEntries $end
$var parameter 32 "" readAfterWrite $end
$var reg 32 #" dataOutA [31:0] $end
$var reg 32 $" dataOutB [31:0] $end
$upscope $end
$upscope $end
$upscope $end
$enddefinitions $end
$comment Show the parameter values. $end
$dumpall
b0 ""
b1000000000 !"
b100000 ~
b101 k
b1 j
b11 i
b10 h
b0 g
b100 f
b110 e
b11111110 P
b11111110 +
b11111101 *
$end
#0
$dumpvars
bx $"
bx #"
0}
bx |
b0 {
1z
bx y
b0 x
bx w
bx v
bx u
b0 t
bx s
bx r
bx q
bx p
bx o
bx n
bx m
bx l
bx d
bx c
b0x b
0a
bx `
b0 _
b0 ^
0]
bx \
bx [
bx Z
b0 Y
bx X
xW
xV
xU
xT
bx S
xR
bx Q
bx O
bx N
b0x M
bx L
0K
0J
xI
1H
bx G
bx F
bx E
xD
xC
b0 B
b0 A
bx @
b0 ?
b0 >
b0 =
0<
b0 ;
bx :
bx 9
b0 8
b0 7
16
05
14
03
02
01
b0 0
0/
0.
0-
b0 ,
bx )
x(
bx '
0&
0%
x$
b0 #
0"
bx !
$end
#5000
0D
b0 !
b0 :
b0 '
b0 N
b0 c
b0 M
b0 b
0I
0$
0(
0C
b0 )
b0 O
b0 d
b0 r
b0 @
b0 \
b0 w
b0 o
b0 m
b0 u
b0 q
b0 G
b0 Z
b0 y
b0 s
b0 p
b0 l
b0 n
b0 v
b0 E
b0 [
b0 |
b0 Q
b0 X
0W
0V
0R
0T
0U
0z
b0 S
11
#10000
1z
01
#15000
0z
11
#20000
1z
01
#25000
0z
11
#30000
1z
01
#35000
0z
11
#40000
1z
01
#45000
0z
11
#50000
1z
01
#55000
0z
11
#60000
1z
01
#65000
0z
11
#70000
1z
01
#75000
0z
11
#80000
1z
01
#85000
0z
11
#90000
1z
01
#95000
0z
11
#100000
1%
bx #
bx =
1J
bx A
1}
1]
1<
1z
b1000000000 7
b1000000000 >
b0 9
b11111110 0
b11111110 ;
15
04
01
#105000
1W
b0 #
b0 =
b0 A
0z
b0 L
b0 #"
11
#110000
b0 F
b0 `
b0 $"
1z
b1 x
01
b1 8
b1 ?
b1 ^
b1 {
b1000000001 7
b1000000001 >
b1 9
#115000
b1 #
b1 =
b1 A
0z
b1 L
b1 #"
11
#120000
1z
b10 x
01
b10 8
b10 ?
b10 ^
b10 {
b1000000010 7
b1000000010 >
b10 9
#125000
b10 #
b10 =
b10 A
0z
b10 L
b10 #"
11
#130000
1z
b11 x
01
b11 8
b11 ?
b11 ^
b11 {
b1000000011 7
b1000000011 >
b11 9
#135000
b11 #
b11 =
b11 A
0z
b11 L
b11 #"
11
#140000
1z
b100 x
01
b100 8
b100 ?
b100 ^
b100 {
b1000000100 7
b1000000100 >
b100 9
#145000
b100 #
b100 =
b100 A
0z
b100 L
b100 #"
11
#150000
1z
b101 x
01
b101 8
b101 ?
b101 ^
b101 {
b1000000101 7
b1000000101 >
b101 9
#155000
b101 #
b101 =
b101 A
0z
b101 L
b101 #"
11
#160000
1z
b110 x
01
b110 8
b110 ?
b110 ^
b110 {
b1000000110 7
b1000000110 >
b110 9
#165000
b110 #
b110 =
b110 A
0z
b110 L
b110 #"
11
#170000
1z
b111 x
01
b111 8
b111 ?
b111 ^
b111 {
b1000000111 7
b1000000111 >
b111 9
#175000
b111 #
b111 =
b111 A
0z
b111 L
b111 #"
11
#180000
1z
b1000 x
01
b1000 8
b1000 ?
b1000 ^
b1000 {
b1000001000 7
b1000001000 >
b1000 9
#185000
b1000 #
b1000 =
b1000 A
0z
b1000 L
b1000 #"
11
#190000
1z
b1001 x
01
b1001 8
b1001 ?
b1001 ^
b1001 {
b1000001001 7
b1000001001 >
b1001 9
#195000
b1001 #
b1001 =
b1001 A
0z
b1001 L
b1001 #"
11
#200000
1z
b1010 x
01
b1010 8
b1010 ?
b1010 ^
b1010 {
b1000001010 7
b1000001010 >
b1010 9
#205000
b1010 #
b1010 =
b1010 A
0z
b1010 L
b1010 #"
11
#210000
1z
b1011 x
01
b1011 8
b1011 ?
b1011 ^
b1011 {
b1000001011 7
b1000001011 >
b1011 9
#215000
b1011 #
b1011 =
b1011 A
0z
b1011 L
b1011 #"
11
#220000
1z
b1100 x
01
b1100 8
b1100 ?
b1100 ^
b1100 {
b1000001100 7
b1000001100 >
b1100 9
#225000
b1100 #
b1100 =
b1100 A
0z
b1100 L
b1100 #"
11
#230000
1z
b1101 x
01
b1101 8
b1101 ?
b1101 ^
b1101 {
b1000001101 7
b1000001101 >
b1101 9
#235000
b1101 #
b1101 =
b1101 A
0z
b1101 L
b1101 #"
11
#240000
1z
b1110 x
01
b1110 8
b1110 ?
b1110 ^
b1110 {
b1000001110 7
b1000001110 >
b1110 9
#245000
b1110 #
b1110 =
b1110 A
0z
b1110 L
b1110 #"
11
#250000
1z
b1111 x
01
b1111 8
b1111 ?
b1111 ^
b1111 {
b1000001111 7
b1000001111 >
b1111 9
#255000
b1111 #
b1111 =
b1111 A
0z
b1111 L
b1111 #"
11
#260000
1z
b10000 x
01
b10000 8
b10000 ?
b10000 ^
b10000 {
b1000010000 7
b1000010000 >
b10000 9
#265000
b10000 #
b10000 =
b10000 A
0z
b10000 L
b10000 #"
11
#270000
1z
b10001 x
01
b10001 8
b10001 ?
b10001 ^
b10001 {
b1000010001 7
b1000010001 >
b10001 9
#275000
b10001 #
b10001 =
b10001 A
0z
b10001 L
b10001 #"
11
#280000
1z
b10010 x
01
b10010 8
b10010 ?
b10010 ^
b10010 {
b1000010010 7
b1000010010 >
b10010 9
#285000
b10010 #
b10010 =
b10010 A
0z
b10010 L
b10010 #"
11
#290000
1z
b10011 x
01
b10011 8
b10011 ?
b10011 ^
b10011 {
b1000010011 7
b1000010011 >
b10011 9
#295000
b10011 #
b10011 =
b10011 A
0z
b10011 L
b10011 #"
11
#300000
1z
b10100 x
01
b10100 8
b10100 ?
b10100 ^
b10100 {
b1000010100 7
b1000010100 >
b10100 9
#305000
b10100 #
b10100 =
b10100 A
0z
b10100 L
b10100 #"
11
#310000
1z
b10101 x
01
b10101 8
b10101 ?
b10101 ^
b10101 {
b1000010101 7
b1000010101 >
b10101 9
#315000
b10101 #
b10101 =
b10101 A
0z
b10101 L
b10101 #"
11
#320000
1z
b10110 x
01
b10110 8
b10110 ?
b10110 ^
b10110 {
b1000010110 7
b1000010110 >
b10110 9
#325000
b10110 #
b10110 =
b10110 A
0z
b10110 L
b10110 #"
11
#330000
1z
b10111 x
01
b10111 8
b10111 ?
b10111 ^
b10111 {
b1000010111 7
b1000010111 >
b10111 9
#335000
b10111 #
b10111 =
b10111 A
0z
b10111 L
b10111 #"
11
#340000
1z
b11000 x
01
b11000 8
b11000 ?
b11000 ^
b11000 {
b1000011000 7
b1000011000 >
b11000 9
#345000
b11000 #
b11000 =
b11000 A
0z
b11000 L
b11000 #"
11
#350000
1z
b11001 x
01
b11001 8
b11001 ?
b11001 ^
b11001 {
b1000011001 7
b1000011001 >
b11001 9
#355000
b11001 #
b11001 =
b11001 A
0z
b11001 L
b11001 #"
11
#360000
1z
b11010 x
01
b11010 8
b11010 ?
b11010 ^
b11010 {
b1000011010 7
b1000011010 >
b11010 9
#365000
b11010 #
b11010 =
b11010 A
0z
b11010 L
b11010 #"
11
#370000
1z
b11011 x
01
b11011 8
b11011 ?
b11011 ^
b11011 {
b1000011011 7
b1000011011 >
b11011 9
#375000
b11011 #
b11011 =
b11011 A
0z
b11011 L
b11011 #"
11
#380000
1z
b11100 x
01
b11100 8
b11100 ?
b11100 ^
b11100 {
b1000011100 7
b1000011100 >
b11100 9
#385000
b11100 #
b11100 =
b11100 A
0z
b11100 L
b11100 #"
11
#390000
1z
b11101 x
01
b11101 8
b11101 ?
b11101 ^
b11101 {
b1000011101 7
b1000011101 >
b11101 9
#395000
b11101 #
b11101 =
b11101 A
0z
b11101 L
b11101 #"
11
#400000
1z
b11110 x
01
b11110 8
b11110 ?
b11110 ^
b11110 {
b1000011110 7
b1000011110 >
b11110 9
#405000
b11110 #
b11110 =
b11110 A
0z
b11110 L
b11110 #"
11
#410000
1z
b11111 x
01
b11111 8
b11111 ?
b11111 ^
b11111 {
b1000011111 7
b1000011111 >
b11111 9
#415000
b11111 #
b11111 =
b11111 A
0z
b11111 L
b11111 #"
11
#420000
1z
b100000 x
01
b100000 8
b100000 ?
b100000 ^
b100000 {
b1000100000 7
b1000100000 >
b100000 9
#425000
b100000 #
b100000 =
b100000 A
0z
b100000 L
b100000 #"
11
#430000
1z
b100001 x
01
b100001 8
b100001 ?
b100001 ^
b100001 {
b1000100001 7
b1000100001 >
b100001 9
#435000
b100001 #
b100001 =
b100001 A
0z
b100001 L
b100001 #"
11
#440000
1z
b100010 x
01
b100010 8
b100010 ?
b100010 ^
b100010 {
b1000100010 7
b1000100010 >
b100010 9
#445000
b100010 #
b100010 =
b100010 A
0z
b100010 L
b100010 #"
11
#450000
1z
b100011 x
01
b100011 8
b100011 ?
b100011 ^
b100011 {
b1000100011 7
b1000100011 >
b100011 9
#455000
b100011 #
b100011 =
b100011 A
0z
b100011 L
b100011 #"
11
#460000
1z
b100100 x
01
b100100 8
b100100 ?
b100100 ^
b100100 {
b1000100100 7
b1000100100 >
b100100 9
#465000
b100100 #
b100100 =
b100100 A
0z
b100100 L
b100100 #"
11
#470000
1z
b100101 x
01
b100101 8
b100101 ?
b100101 ^
b100101 {
b1000100101 7
b1000100101 >
b100101 9
#475000
b100101 #
b100101 =
b100101 A
0z
b100101 L
b100101 #"
11
#480000
1z
b100110 x
01
b100110 8
b100110 ?
b100110 ^
b100110 {
b1000100110 7
b1000100110 >
b100110 9
#485000
b100110 #
b100110 =
b100110 A
0z
b100110 L
b100110 #"
11
#490000
1z
b100111 x
01
b100111 8
b100111 ?
b100111 ^
b100111 {
b1000100111 7
b1000100111 >
b100111 9
#495000
b100111 #
b100111 =
b100111 A
0z
b100111 L
b100111 #"
11
#500000
1z
b101000 x
01
b101000 8
b101000 ?
b101000 ^
b101000 {
b1000101000 7
b1000101000 >
b101000 9
#505000
b101000 #
b101000 =
b101000 A
0z
b101000 L
b101000 #"
11
#510000
1z
b101001 x
01
b101001 8
b101001 ?
b101001 ^
b101001 {
b1000101001 7
b1000101001 >
b101001 9
#515000
b101001 #
b101001 =
b101001 A
0z
b101001 L
b101001 #"
11
#520000
1z
b101010 x
01
b101010 8
b101010 ?
b101010 ^
b101010 {
b1000101010 7
b1000101010 >
b101010 9
#525000
b101010 #
b101010 =
b101010 A
0z
b101010 L
b101010 #"
11
#530000
1z
b101011 x
01
b101011 8
b101011 ?
b101011 ^
b101011 {
b1000101011 7
b1000101011 >
b101011 9
#535000
b101011 #
b101011 =
b101011 A
0z
b101011 L
b101011 #"
11
#540000
1z
b101100 x
01
b101100 8
b101100 ?
b101100 ^
b101100 {
b1000101100 7
b1000101100 >
b101100 9
#545000
b101100 #
b101100 =
b101100 A
0z
b101100 L
b101100 #"
11
#550000
1z
b101101 x
01
b101101 8
b101101 ?
b101101 ^
b101101 {
b1000101101 7
b1000101101 >
b101101 9
#555000
b101101 #
b101101 =
b101101 A
0z
b101101 L
b101101 #"
11
#560000
1z
b101110 x
01
b101110 8
b101110 ?
b101110 ^
b101110 {
b1000101110 7
b1000101110 >
b101110 9
#565000
b101110 #
b101110 =
b101110 A
0z
b101110 L
b101110 #"
11
#570000
1z
b101111 x
01
b101111 8
b101111 ?
b101111 ^
b101111 {
b1000101111 7
b1000101111 >
b101111 9
#575000
b101111 #
b101111 =
b101111 A
0z
b101111 L
b101111 #"
11
#580000
1z
b110000 x
01
b110000 8
b110000 ?
b110000 ^
b110000 {
b1000110000 7
b1000110000 >
b110000 9
#585000
b110000 #
b110000 =
b110000 A
0z
b110000 L
b110000 #"
11
#590000
1z
b110001 x
01
b110001 8
b110001 ?
b110001 ^
b110001 {
b1000110001 7
b1000110001 >
b110001 9
#595000
b110001 #
b110001 =
b110001 A
0z
b110001 L
b110001 #"
11
#600000
1z
b110010 x
01
b110010 8
b110010 ?
b110010 ^
b110010 {
b1000110010 7
b1000110010 >
b110010 9
#605000
b110010 #
b110010 =
b110010 A
0z
b110010 L
b110010 #"
11
#610000
1z
b110011 x
01
b110011 8
b110011 ?
b110011 ^
b110011 {
b1000110011 7
b1000110011 >
b110011 9
#615000
b110011 #
b110011 =
b110011 A
0z
b110011 L
b110011 #"
11
#620000
1z
b110100 x
01
b110100 8
b110100 ?
b110100 ^
b110100 {
b1000110100 7
b1000110100 >
b110100 9
#625000
b110100 #
b110100 =
b110100 A
0z
b110100 L
b110100 #"
11
#630000
1z
b110101 x
01
b110101 8
b110101 ?
b110101 ^
b110101 {
b1000110101 7
b1000110101 >
b110101 9
#635000
b110101 #
b110101 =
b110101 A
0z
b110101 L
b110101 #"
11
#640000
1z
b110110 x
01
b110110 8
b110110 ?
b110110 ^
b110110 {
b1000110110 7
b1000110110 >
b110110 9
#645000
b110110 #
b110110 =
b110110 A
0z
b110110 L
b110110 #"
11
#650000
1z
b110111 x
01
b110111 8
b110111 ?
b110111 ^
b110111 {
b1000110111 7
b1000110111 >
b110111 9
#655000
b110111 #
b110111 =
b110111 A
0z
b110111 L
b110111 #"
11
#660000
1z
b111000 x
01
b111000 8
b111000 ?
b111000 ^
b111000 {
b1000111000 7
b1000111000 >
b111000 9
#665000
b111000 #
b111000 =
b111000 A
0z
b111000 L
b111000 #"
11
#670000
1z
b111001 x
01
b111001 8
b111001 ?
b111001 ^
b111001 {
b1000111001 7
b1000111001 >
b111001 9
#675000
b111001 #
b111001 =
b111001 A
0z
b111001 L
b111001 #"
11
#680000
1z
b111010 x
01
b111010 8
b111010 ?
b111010 ^
b111010 {
b1000111010 7
b1000111010 >
b111010 9
#685000
b111010 #
b111010 =
b111010 A
0z
b111010 L
b111010 #"
11
#690000
1z
b111011 x
01
b111011 8
b111011 ?
b111011 ^
b111011 {
b1000111011 7
b1000111011 >
b111011 9
#695000
b111011 #
b111011 =
b111011 A
0z
b111011 L
b111011 #"
11
#700000
1z
b111100 x
01
b111100 8
b111100 ?
b111100 ^
b111100 {
b1000111100 7
b1000111100 >
b111100 9
#705000
b111100 #
b111100 =
b111100 A
0z
b111100 L
b111100 #"
11
#710000
1z
b111101 x
01
b111101 8
b111101 ?
b111101 ^
b111101 {
b1000111101 7
b1000111101 >
b111101 9
#715000
b111101 #
b111101 =
b111101 A
0z
b111101 L
b111101 #"
11
#720000
1z
b111110 x
01
b111110 8
b111110 ?
b111110 ^
b111110 {
b1000111110 7
b1000111110 >
b111110 9
#725000
b111110 #
b111110 =
b111110 A
0z
b111110 L
b111110 #"
11
#730000
1z
b111111 x
01
b111111 8
b111111 ?
b111111 ^
b111111 {
b1000111111 7
b1000111111 >
b111111 9
#735000
b111111 #
b111111 =
b111111 A
0z
b111111 L
b111111 #"
11
#740000
1z
b1000000 x
01
b1000000 8
b1000000 ?
b1000000 ^
b1000000 {
b1001000000 7
b1001000000 >
b1000000 9
#745000
b1000000 #
b1000000 =
b1000000 A
0z
b1000000 L
b1000000 #"
11
#750000
1z
b1000001 x
01
b1000001 8
b1000001 ?
b1000001 ^
b1000001 {
b1001000001 7
b1001000001 >
b1000001 9
#755000
b1000001 #
b1000001 =
b1000001 A
0z
b1000001 L
b1000001 #"
11
#760000
1z
b1000010 x
01
b1000010 8
b1000010 ?
b1000010 ^
b1000010 {
b1001000010 7
b1001000010 >
b1000010 9
#765000
b1000010 #
b1000010 =
b1000010 A
0z
b1000010 L
b1000010 #"
11
#770000
1z
b1000011 x
01
b1000011 8
b1000011 ?
b1000011 ^
b1000011 {
b1001000011 7
b1001000011 >
b1000011 9
#775000
b1000011 #
b1000011 =
b1000011 A
0z
b1000011 L
b1000011 #"
11
#780000
1z
b1000100 x
01
b1000100 8
b1000100 ?
b1000100 ^
b1000100 {
b1001000100 7
b1001000100 >
b1000100 9
#785000
b1000100 #
b1000100 =
b1000100 A
0z
b1000100 L
b1000100 #"
11
#790000
1z
b1000101 x
01
b1000101 8
b1000101 ?
b1000101 ^
b1000101 {
b1001000101 7
b1001000101 >
b1000101 9
#795000
b1000101 #
b1000101 =
b1000101 A
0z
b1000101 L
b1000101 #"
11
#800000
1z
b1000110 x
01
b1000110 8
b1000110 ?
b1000110 ^
b1000110 {
b1001000110 7
b1001000110 >
b1000110 9
#805000
b1000110 #
b1000110 =
b1000110 A
0z
b1000110 L
b1000110 #"
11
#810000
1z
b1000111 x
01
b1000111 8
b1000111 ?
b1000111 ^
b1000111 {
b1001000111 7
b1001000111 >
b1000111 9
#815000
b1000111 #
b1000111 =
b1000111 A
0z
b1000111 L
b1000111 #"
11
#820000
1z
b1001000 x
01
b1001000 8
b1001000 ?
b1001000 ^
b1001000 {
b1001001000 7
b1001001000 >
b1001000 9
#825000
b1001000 #
b1001000 =
b1001000 A
0z
b1001000 L
b1001000 #"
11
#830000
1z
b1001001 x
01
b1001001 8
b1001001 ?
b1001001 ^
b1001001 {
b1001001001 7
b1001001001 >
b1001001 9
#835000
b1001001 #
b1001001 =
b1001001 A
0z
b1001001 L
b1001001 #"
11
#840000
1z
b1001010 x
01
b1001010 8
b1001010 ?
b1001010 ^
b1001010 {
b1001001010 7
b1001001010 >
b1001010 9
#845000
b1001010 #
b1001010 =
b1001010 A
0z
b1001010 L
b1001010 #"
11
#850000
1z
b1001011 x
01
b1001011 8
b1001011 ?
b1001011 ^
b1001011 {
b1001001011 7
b1001001011 >
b1001011 9
#855000
b1001011 #
b1001011 =
b1001011 A
0z
b1001011 L
b1001011 #"
11
#860000
1z
b1001100 x
01
b1001100 8
b1001100 ?
b1001100 ^
b1001100 {
b1001001100 7
b1001001100 >
b1001100 9
#865000
b1001100 #
b1001100 =
b1001100 A
0z
b1001100 L
b1001100 #"
11
#870000
1z
b1001101 x
01
b1001101 8
b1001101 ?
b1001101 ^
b1001101 {
b1001001101 7
b1001001101 >
b1001101 9
#875000
b1001101 #
b1001101 =
b1001101 A
0z
b1001101 L
b1001101 #"
11
#880000
1z
b1001110 x
01
b1001110 8
b1001110 ?
b1001110 ^
b1001110 {
b1001001110 7
b1001001110 >
b1001110 9
#885000
b1001110 #
b1001110 =
b1001110 A
0z
b1001110 L
b1001110 #"
11
#890000
1z
b1001111 x
01
b1001111 8
b1001111 ?
b1001111 ^
b1001111 {
b1001001111 7
b1001001111 >
b1001111 9
#895000
b1001111 #
b1001111 =
b1001111 A
0z
b1001111 L
b1001111 #"
11
#900000
1z
b1010000 x
01
b1010000 8
b1010000 ?
b1010000 ^
b1010000 {
b1001010000 7
b1001010000 >
b1010000 9
#905000
b1010000 #
b1010000 =
b1010000 A
0z
b1010000 L
b1010000 #"
11
#910000
1z
b1010001 x
01
b1010001 8
b1010001 ?
b1010001 ^
b1010001 {
b1001010001 7
b1001010001 >
b1010001 9
#915000
b1010001 #
b1010001 =
b1010001 A
0z
b1010001 L
b1010001 #"
11
#920000
1z
b1010010 x
01
b1010010 8
b1010010 ?
b1010010 ^
b1010010 {
b1001010010 7
b1001010010 >
b1010010 9
#925000
b1010010 #
b1010010 =
b1010010 A
0z
b1010010 L
b1010010 #"
11
#930000
1z
b1010011 x
01
b1010011 8
b1010011 ?
b1010011 ^
b1010011 {
b1001010011 7
b1001010011 >
b1010011 9
#935000
b1010011 #
b1010011 =
b1010011 A
0z
b1010011 L
b1010011 #"
11
#940000
1z
b1010100 x
01
b1010100 8
b1010100 ?
b1010100 ^
b1010100 {
b1001010100 7
b1001010100 >
b1010100 9
#945000
b1010100 #
b1010100 =
b1010100 A
0z
b1010100 L
b1010100 #"
11
#950000
1z
b1010101 x
01
b1010101 8
b1010101 ?
b1010101 ^
b1010101 {
b1001010101 7
b1001010101 >
b1010101 9
#955000
b1010101 #
b1010101 =
b1010101 A
0z
b1010101 L
b1010101 #"
11
#960000
1z
b1010110 x
01
b1010110 8
b1010110 ?
b1010110 ^
b1010110 {
b1001010110 7
b1001010110 >
b1010110 9
#965000
b1010110 #
b1010110 =
b1010110 A
0z
b1010110 L
b1010110 #"
11
#970000
1z
b1010111 x
01
b1010111 8
b1010111 ?
b1010111 ^
b1010111 {
b1001010111 7
b1001010111 >
b1010111 9
#975000
b1010111 #
b1010111 =
b1010111 A
0z
b1010111 L
b1010111 #"
11
#980000
1z
b1011000 x
01
b1011000 8
b1011000 ?
b1011000 ^
b1011000 {
b1001011000 7
b1001011000 >
b1011000 9
#985000
b1011000 #
b1011000 =
b1011000 A
0z
b1011000 L
b1011000 #"
11
#990000
1z
b1011001 x
01
b1011001 8
b1011001 ?
b1011001 ^
b1011001 {
b1001011001 7
b1001011001 >
b1011001 9
#995000
b1011001 #
b1011001 =
b1011001 A
0z
b1011001 L
b1011001 #"
11
#1000000
1z
b1011010 x
01
b1011010 8
b1011010 ?
b1011010 ^
b1011010 {
b1001011010 7
b1001011010 >
b1011010 9
#1005000
b1011010 #
b1011010 =
b1011010 A
0z
b1011010 L
b1011010 #"
11
#1010000
1z
b1011011 x
01
b1011011 8
b1011011 ?
b1011011 ^
b1011011 {
b1001011011 7
b1001011011 >
b1011011 9
#1015000
b1011011 #
b1011011 =
b1011011 A
0z
b1011011 L
b1011011 #"
11
#1020000
1z
b1011100 x
01
b1011100 8
b1011100 ?
b1011100 ^
b1011100 {
b1001011100 7
b1001011100 >
b1011100 9
#1025000
b1011100 #
b1011100 =
b1011100 A
0z
b1011100 L
b1011100 #"
11
#1030000
1z
b1011101 x
01
b1011101 8
b1011101 ?
b1011101 ^
b1011101 {
b1001011101 7
b1001011101 >
b1011101 9
#1035000
b1011101 #
b1011101 =
b1011101 A
0z
b1011101 L
b1011101 #"
11
#1040000
1z
b1011110 x
01
b1011110 8
b1011110 ?
b1011110 ^
b1011110 {
b1001011110 7
b1001011110 >
b1011110 9
#1045000
b1011110 #
b1011110 =
b1011110 A
0z
b1011110 L
b1011110 #"
11
#1050000
1z
b1011111 x
01
b1011111 8
b1011111 ?
b1011111 ^
b1011111 {
b1001011111 7
b1001011111 >
b1011111 9
#1055000
b1011111 #
b1011111 =
b1011111 A
0z
b1011111 L
b1011111 #"
11
#1060000
1z
b1100000 x
01
b1100000 8
b1100000 ?
b1100000 ^
b1100000 {
b1001100000 7
b1001100000 >
b1100000 9
#1065000
b1100000 #
b1100000 =
b1100000 A
0z
b1100000 L
b1100000 #"
11
#1070000
1z
b1100001 x
01
b1100001 8
b1100001 ?
b1100001 ^
b1100001 {
b1001100001 7
b1001100001 >
b1100001 9
#1075000
b1100001 #
b1100001 =
b1100001 A
0z
b1100001 L
b1100001 #"
11
#1080000
1z
b1100010 x
01
b1100010 8
b1100010 ?
b1100010 ^
b1100010 {
b1001100010 7
b1001100010 >
b1100010 9
#1085000
b1100010 #
b1100010 =
b1100010 A
0z
b1100010 L
b1100010 #"
11
#1090000
1z
b1100011 x
01
b1100011 8
b1100011 ?
b1100011 ^
b1100011 {
b1001100011 7
b1001100011 >
b1100011 9
#1095000
b1100011 #
b1100011 =
b1100011 A
0z
b1100011 L
b1100011 #"
11
#1100000
1z
b1100100 x
01
b1100100 8
b1100100 ?
b1100100 ^
b1100100 {
b1001100100 7
b1001100100 >
b1100100 9
#1105000
b1100100 #
b1100100 =
b1100100 A
0z
b1100100 L
b1100100 #"
11
#1110000
1z
b1100101 x
01
b1100101 8
b1100101 ?
b1100101 ^
b1100101 {
b1001100101 7
b1001100101 >
b1100101 9
#1115000
b1100101 #
b1100101 =
b1100101 A
0z
b1100101 L
b1100101 #"
11
#1120000
1z
b1100110 x
01
b1100110 8
b1100110 ?
b1100110 ^
b1100110 {
b1001100110 7
b1001100110 >
b1100110 9
#1125000
b1100110 #
b1100110 =
b1100110 A
0z
b1100110 L
b1100110 #"
11
#1130000
1z
b1100111 x
01
b1100111 8
b1100111 ?
b1100111 ^
b1100111 {
b1001100111 7
b1001100111 >
b1100111 9
#1135000
b1100111 #
b1100111 =
b1100111 A
0z
b1100111 L
b1100111 #"
11
#1140000
1z
b1101000 x
01
b1101000 8
b1101000 ?
b1101000 ^
b1101000 {
b1001101000 7
b1001101000 >
b1101000 9
#1145000
b1101000 #
b1101000 =
b1101000 A
0z
b1101000 L
b1101000 #"
11
#1150000
1z
b1101001 x
01
b1101001 8
b1101001 ?
b1101001 ^
b1101001 {
b1001101001 7
b1001101001 >
b1101001 9
#1155000
b1101001 #
b1101001 =
b1101001 A
0z
b1101001 L
b1101001 #"
11
#1160000
1z
b1101010 x
01
b1101010 8
b1101010 ?
b1101010 ^
b1101010 {
b1001101010 7
b1001101010 >
b1101010 9
#1165000
b1101010 #
b1101010 =
b1101010 A
0z
b1101010 L
b1101010 #"
11
#1170000
1z
b1101011 x
01
b1101011 8
b1101011 ?
b1101011 ^
b1101011 {
b1001101011 7
b1001101011 >
b1101011 9
#1175000
b1101011 #
b1101011 =
b1101011 A
0z
b1101011 L
b1101011 #"
11
#1180000
1z
b1101100 x
01
b1101100 8
b1101100 ?
b1101100 ^
b1101100 {
b1001101100 7
b1001101100 >
b1101100 9
#1185000
b1101100 #
b1101100 =
b1101100 A
0z
b1101100 L
b1101100 #"
11
