lab-6/virtual_prototype/modules/DMA/ramDmaCi.vcd
$date
	Fri Apr 19 19:55:56 2024
$end
$version
	Icarus Verilog
$end
$timescale
	1ps
$end
$scope module dma_controller_tb $end
$var wire 32 ! addressData [31:0] $end
$var wire 1 " dataValid $end
$var wire 32 # result [31:0] $end
$var wire 1 $ requestTransaction $end
$var wire 1 % done $end
$var wire 1 & dataValidOut $end
$var wire 8 ' burstSizeOut [7:0] $end
$var wire 1 ( beginTransactionOut $end
$var wire 32 ) addressDataOut [31:0] $end
$var parameter 8 * customIdCPU $end
$var parameter 8 + customIdDMA $end
$var reg 32 , addressDataIn [31:0] $end
$var reg 1 - beginTransactionIn $end
$var reg 1 . busErrorIn $end
$var reg 1 / busyBitIn $end
$var reg 8 0 ciN [7:0] $end
$var reg 1 1 clock $end
$var reg 1 2 dataValidIn $end
$var reg 1 3 endTransactionIn $end
$var reg 1 4 reset $end
$var reg 1 5 start $end
$var reg 1 6 transactionGranted $end
$var reg 32 7 valueA [31:0] $end
$var reg 32 8 valueB [31:0] $end
$var integer 32 9 i [31:0] $end
$scope module uut $end
$var wire 32 : address_data_in [31:0] $end
$var wire 1 ( begin_transaction_out $end
$var wire 8 ; burst_size_out [7:0] $end
$var wire 1 $ busRequest $end
$var wire 1 / busy_in $end
$var wire 4 < byte_enables_out [3:0] $end
$var wire 8 = ciN [7:0] $end
$var wire 1 1 clock $end
$var wire 1 " data_valid_in $end
$var wire 1 % done $end
$var wire 1 3 end_transaction_in $end
$var wire 1 > end_transaction_out $end
$var wire 1 . error_in $end
$var wire 1 6 grantRequest $end
$var wire 1 ? is_valid $end
$var wire 1 @ read_n_write_out $end
$var wire 1 4 reset $end
$var wire 32 A result [31:0] $end
$var wire 1 5 start $end
$var wire 32 B valueA [31:0] $end
$var wire 32 C valueB [31:0] $end
$var wire 2 D status [1:0] $end
$var wire 32 E resultMem [31:0] $end
$var wire 32 F resultDMA [31:0] $end
$var wire 1 G read_n_write_out_s $end
$var wire 1 H memWriteEnable $end
$var wire 32 I memDataOut [31:0] $end
$var wire 32 J memDataIn [31:0] $end
$var wire 9 K memAddress [8:0] $end
$var wire 1 L is_memory $end
$var wire 1 M end_transaction_out_s $end
$var wire 1 N doneMem $end
$var wire 1 O doneDMA $end
$var wire 1 P data_valid_out_s $end
$var wire 1 & data_valid_out $end
$var wire 32 Q dataOutA [31:0] $end
$var wire 4 R byte_enables_out_s [3:0] $end
$var wire 1 S busRequest_s $end
$var wire 8 T burst_size_out_s [7:0] $end
$var wire 1 U begin_transaction_out_s $end
$var wire 32 V address_data_out_s [31:0] $end
$var wire 32 W address_data_out [31:0] $end
$var parameter 8 X customId $end
$var reg 32 Y address_data_in_r [31:0] $end
$var reg 32 Z address_data_out_r [31:0] $end
$var reg 1 [ begin_transaction_out_r $end
$var reg 8 \ burst_size_out_r [7:0] $end
$var reg 1 ] busRequest_r $end
$var reg 1 ^ busy_in_r $end
$var reg 4 _ byte_enables_out_r [3:0] $end
$var reg 2 ` counter [1:0] $end
$var reg 1 a data_valid_in_r $end
$var reg 1 & data_valid_out_r $end
$var reg 1 b end_transaction_in_r $end
$var reg 1 c end_transaction_out_r $end
$var reg 1 d error_in_r $end
$var reg 1 e grantRequest_r $end
$var reg 1 f read_n_write_out_r $end
$scope module dmaController $end
$var wire 32 g address_data_in [31:0] $end
$var wire 1 ^ busy_in $end
$var wire 1 1 clock $end
$var wire 3 h configurationBits [2:0] $end
$var wire 1 a data_valid_in $end
$var wire 1 P data_valid_out $end
$var wire 1 b end_transaction_in $end
$var wire 1 d error_in $end
$var wire 1 e grantRequest $end
$var wire 9 i memAddress [8:0] $end
$var wire 32 j memDataOut [31:0] $end
$var wire 1 4 reset $end
$var wire 2 k status [1:0] $end
$var wire 1 ? validInstruction $end
$var wire 1 l writeEnable $end
$var wire 32 m writeSettings [31:0] $end
$var wire 1 G read_n_write_out $end
$var wire 32 n readSettings [31:0] $end
$var wire 1 H memWriteEnable $end
$var wire 32 o memDataIn [31:0] $end
$var wire 1 M end_transaction_out $end
$var wire 1 p data_valid_sc $end
$var wire 4 q byte_enables_out [3:0] $end
$var wire 1 S busRequest $end
$var wire 8 r burst_size_out [7:0] $end
$var wire 1 U begin_transaction_out $end
$var wire 32 s address_data_out [31:0] $end
$var parameter 3 t C2R $end
$var parameter 3 u CLOSE $end
$var parameter 3 v IDLE $end
$var parameter 3 w INIT $end
$var parameter 3 x READ $end
$var parameter 3 y REQUEST $end
$var parameter 3 z WRITE $end
$var reg 10 { blockCounter [9:0] $end
$var reg 10 | blockSize [9:0] $end
$var reg 9 } burstCounter [8:0] $end
$var reg 9 ~ burstSize [8:0] $end
$var reg 32 !" busAddress [31:0] $end
$var reg 32 "" busStart [31:0] $end
$var reg 2 #" controlRegister [1:0] $end
$var reg 9 $" memAddress_r [8:0] $end
$var reg 3 %" memCounter [0:2] $end
$var reg 9 &" memoryStart [8:0] $end
$var reg 3 '" state [2:0] $end
$var reg 2 (" statusRegister [1:0] $end
$upscope $end
$scope module memory $end
$var wire 9 )" addressA [8:0] $end
$var wire 9 *" addressB [8:0] $end
$var wire 1 1 clockA $end
$var wire 1 1 clockB $end
$var wire 32 +" dataInA [31:0] $end
$var wire 32 ," dataInB [31:0] $end
$var wire 1 -" writeEnableA $end
$var wire 1 H writeEnableB $end
$var parameter 32 ." bitwidth $end
$var parameter 32 /" nrOfEntries $end
$var parameter 32 0" readAfterWrite $end
$var reg 32 1" dataOutA [31:0] $end
$var reg 32 2" dataOutB [31:0] $end
$upscope $end
$upscope $end
$upscope $end
$enddefinitions $end
$comment Show the parameter values. $end
$dumpall
b0 0"
b1000000000 /"
b100000 ."
b101 z
b1 y
b11 x
b10 w
b0 v
b100 u
b110 t
b11111110 X
b11111110 +
b11111101 *
$end
#0
$dumpvars
bx 2"
bx 1"
0-"
bx ,"
b0 +"
bx *"
b0 )"
bx ("
bx '"
bx &"
b0 %"
bx $"
bx #"
bx ""
bx !"
bx ~
bx }
bx |
bx {
bx s
bx r
b0x q
0p
bx o
b0 n
b0 m
0l
bx k
bx j
bx i
b0 h
bx g
xf
xe
xd
xc
xb
xa
bx `
bx _
x^
x]
bx \
x[
bx Z
bx Y
bx W
bx V
xU
bx T
xS
b0x R
bx Q
0P
0O
0N
xM
1L
bx K
bx J
bx I
xH
xG
b0 F
b0 E
bx D
b0 C
b0 B
b0 A
x@
0?
x>
b0 =
bx <
bx ;
bx :
bx 9
b0 8
b0 7
16
05
14
03
02
01
b0 0
0/
0.
0-
b0 ,
bx )
x(
bx '
x&
0%
x$
b0 #
x"
bx !
$end
#5000
0H
b0 T
b0 r
b0 R
b0 q
0M
0S
0U
0G
b0 V
b0 s
0"
b0 !
b0 :
b0 #"
b0 ~
b0 |
b0 &"
b0 ""
b0 K
b0 i
b0 *"
b0 $"
b0 !"
b0 {
b0 }
b0 D
b0 k
b0 ("
b0 '"
0$
0]
0&
0>
0c
0(
0[
0@
0f
b0 )
b0 W
b0 Z
b0 '
b0 ;
b0 \
b0 <
b0 _
b0 I
b0 j
b0 ,"
b0 Y
b0 g
0e
0d
0^
0a
0b
b0 `
11
#10000
01
#15000
11
#20000
01
#25000
11
#30000
01
#35000
11
#40000
01
#45000
11
#50000
01
#55000
11
#60000
01
#65000
11
#70000
01
#75000
11
#80000
01
#85000
11
#90000
01
#95000
11
#100000
1%
1N
bx #
bx A
1-"
bx E
1l
1?
b1000000000 7
b1000000000 B
b0 9
b11111110 0
b11111110 =
15
04
01
#105000
b0 #
b0 A
b0 E
b0 Q
b0 1"
1e
11
#110000
b0 J
b0 o
b0 2"
b1 )"
01
b1 8
b1 C
b1 m
b1 +"
b1000000001 7
b1000000001 B
b1 9
#115000
b1 #
b1 A
b1 E
b1 Q
b1 1"
11
#120000
b10 )"
01
b10 8
b10 C
b10 m
b10 +"
b1000000010 7
b1000000010 B
b10 9
#125000
b10 #
b10 A
b10 E
b10 Q
b10 1"
11
#130000
b11 )"
01
b11 8
b11 C
b11 m
b11 +"
b1000000011 7
b1000000011 B
b11 9
#135000
b11 #
b11 A
b11 E
b11 Q
b11 1"
11
#140000
b100 )"
01
b100 8
b100 C
b100 m
b100 +"
b1000000100 7
b1000000100 B
b100 9
#145000
b100 #
b100 A
b100 E
b100 Q
b100 1"
11
#150000
b101 )"
01
b101 8
b101 C
b101 m
b101 +"
b1000000101 7
b1000000101 B
b101 9
#155000
b101 #
b101 A
b101 E
b101 Q
b101 1"
11
#160000
b110 )"
01
b110 8
b110 C
b110 m
b110 +"
b1000000110 7
b1000000110 B
b110 9
#165000
b110 #
b110 A
b110 E
b110 Q
b110 1"
11
#170000
b111 )"
01
b111 8
b111 C
b111 m
b111 +"
b1000000111 7
b1000000111 B
b111 9
#175000
b111 #
b111 A
b111 E
b111 Q
b111 1"
11
#180000
b1000 )"
01
b1000 8
b1000 C
b1000 m
b1000 +"
b1000001000 7
b1000001000 B
b1000 9
#185000
b1000 #
b1000 A
b1000 E
b1000 Q
b1000 1"
11
#190000
b1001 )"
01
b1001 8
b1001 C
b1001 m
b1001 +"
b1000001001 7
b1000001001 B
b1001 9
#195000
b1001 #
b1001 A
b1001 E
b1001 Q
b1001 1"
11
#200000
b1010 )"
01
b1010 8
b1010 C
b1010 m
b1010 +"
b1000001010 7
b1000001010 B
b1010 9
#205000
b1010 #
b1010 A
b1010 E
b1010 Q
b1010 1"
11
#210000
b1011 )"
01
b1011 8
b1011 C
b1011 m
b1011 +"
b1000001011 7
b1000001011 B
b1011 9
#215000
b1011 #
b1011 A
b1011 E
b1011 Q
b1011 1"
11
#220000
b1100 )"
01
b1100 8
b1100 C
b1100 m
b1100 +"
b1000001100 7
b1000001100 B
b1100 9
#225000
b1100 #
b1100 A
b1100 E
b1100 Q
b1100 1"
11
#230000
b1101 )"
01
b1101 8
b1101 C
b1101 m
b1101 +"
b1000001101 7
b1000001101 B
b1101 9
#235000
b1101 #
b1101 A
b1101 E
b1101 Q
b1101 1"
11
#240000
b1110 )"
01
b1110 8
b1110 C
b1110 m
b1110 +"
b1000001110 7
b1000001110 B
b1110 9
#245000
b1110 #
b1110 A
b1110 E
b1110 Q
b1110 1"
11
#250000
b1111 )"
01
b1111 8
b1111 C
b1111 m
b1111 +"
b1000001111 7
b1000001111 B
b1111 9
#255000
b1111 #
b1111 A
b1111 E
b1111 Q
b1111 1"
11
#260000
b10000 )"
01
b10000 8
b10000 C
b10000 m
b10000 +"
b1000010000 7
b1000010000 B
b10000 9
#265000
b10000 #
b10000 A
b10000 E
b10000 Q
b10000 1"
11
#270000
b10001 )"
01
b10001 8
b10001 C
b10001 m
b10001 +"
b1000010001 7
b1000010001 B
b10001 9
#275000
b10001 #
b10001 A
b10001 E
b10001 Q
b10001 1"
11
#280000
b10010 )"
01
b10010 8
b10010 C
b10010 m
b10010 +"
b1000010010 7
b1000010010 B
b10010 9
#285000
b10010 #
b10010 A
b10010 E
b10010 Q
b10010 1"
11
#290000
b10011 )"
01
b10011 8
b10011 C
b10011 m
b10011 +"
b1000010011 7
b1000010011 B
b10011 9
#295000
b10011 #
b10011 A
b10011 E
b10011 Q
b10011 1"
11
#300000
b10100 )"
01
b10100 8
b10100 C
b10100 m
b10100 +"
b1000010100 7
b1000010100 B
b10100 9
#305000
b10100 #
b10100 A
b10100 E
b10100 Q
b10100 1"
11
#310000
b10101 )"
01
b10101 8
b10101 C
b10101 m
b10101 +"
b1000010101 7
b1000010101 B
b10101 9
#315000
b10101 #
b10101 A
b10101 E
b10101 Q
b10101 1"
11
#320000
b10110 )"
01
b10110 8
b10110 C
b10110 m
b10110 +"
b1000010110 7
b1000010110 B
b10110 9
#325000
b10110 #
b10110 A
b10110 E
b10110 Q
b10110 1"
11
#330000
b10111 )"
01
b10111 8
b10111 C
b10111 m
b10111 +"
b1000010111 7
b1000010111 B
b10111 9
#335000
b10111 #
b10111 A
b10111 E
b10111 Q
b10111 1"
11
#340000
b11000 )"
01
b11000 8
b11000 C
b11000 m
b11000 +"
b1000011000 7
b1000011000 B
b11000 9
#345000
b11000 #
b11000 A
b11000 E
b11000 Q
b11000 1"
11
#350000
b11001 )"
01
b11001 8
b11001 C
b11001 m
b11001 +"
b1000011001 7
b1000011001 B
b11001 9
#355000
b11001 #
b11001 A
b11001 E
b11001 Q
b11001 1"
11
#360000
b11010 )"
01
b11010 8
b11010 C
b11010 m
b11010 +"
b1000011010 7
b1000011010 B
b11010 9
#365000
b11010 #
b11010 A
b11010 E
b11010 Q
b11010 1"
11
#370000
b11011 )"
01
b11011 8
b11011 C
b11011 m
b11011 +"
b1000011011 7
b1000011011 B
b11011 9
#375000
b11011 #
b11011 A
b11011 E
b11011 Q
b11011 1"
11
#380000
b11100 )"
01
b11100 8
b11100 C
b11100 m
b11100 +"
b1000011100 7
b1000011100 B
b11100 9
#385000
b11100 #
b11100 A
b11100 E
b11100 Q
b11100 1"
11
#390000
b11101 )"
01
b11101 8
b11101 C
b11101 m
b11101 +"
b1000011101 7
b1000011101 B
b11101 9
#395000
b11101 #
b11101 A
b11101 E
b11101 Q
b11101 1"
11
#400000
b11110 )"
01
b11110 8
b11110 C
b11110 m
b11110 +"
b1000011110 7
b1000011110 B
b11110 9
#405000
b11110 #
b11110 A
b11110 E
b11110 Q
b11110 1"
11
#410000
b11111 )"
01
b11111 8
b11111 C
b11111 m
b11111 +"
b1000011111 7
b1000011111 B
b11111 9
#415000
b11111 #
b11111 A
b11111 E
b11111 Q
b11111 1"
11
#420000
b100000 )"
01
b100000 8
b100000 C
b100000 m
b100000 +"
b1000100000 7
b1000100000 B
b100000 9
#425000
b100000 #
b100000 A
b100000 E
b100000 Q
b100000 1"
11
#430000
b100001 )"
01
b100001 8
b100001 C
b100001 m
b100001 +"
b1000100001 7
b1000100001 B
b100001 9
#435000
b100001 #
b100001 A
b100001 E
b100001 Q
b100001 1"
11
#440000
b100010 )"
01
b100010 8
b100010 C
b100010 m
b100010 +"
b1000100010 7
b1000100010 B
b100010 9
#445000
b100010 #
b100010 A
b100010 E
b100010 Q
b100010 1"
11
#450000
b100011 )"
01
b100011 8
b100011 C
b100011 m
b100011 +"
b1000100011 7
b1000100011 B
b100011 9
#455000
b100011 #
b100011 A
b100011 E
b100011 Q
b100011 1"
11
#460000
b100100 )"
01
b100100 8
b100100 C
b100100 m
b100100 +"
b1000100100 7
b1000100100 B
b100100 9
#465000
b100100 #
b100100 A
b100100 E
b100100 Q
b100100 1"
11
#470000
b100101 )"
01
b100101 8
b100101 C
b100101 m
b100101 +"
b1000100101 7
b1000100101 B
b100101 9
#475000
b100101 #
b100101 A
b100101 E
b100101 Q
b100101 1"
11
#480000
b100110 )"
01
b100110 8
b100110 C
b100110 m
b100110 +"
b1000100110 7
b1000100110 B
b100110 9
#485000
b100110 #
b100110 A
b100110 E
b100110 Q
b100110 1"
11
#490000
b100111 )"
01
b100111 8
b100111 C
b100111 m
b100111 +"
b1000100111 7
b1000100111 B
b100111 9
#495000
b100111 #
b100111 A
b100111 E
b100111 Q
b100111 1"
11
#500000
b101000 )"
01
b101000 8
b101000 C
b101000 m
b101000 +"
b1000101000 7
b1000101000 B
b101000 9
#505000
b101000 #
b101000 A
b101000 E
b101000 Q
b101000 1"
11
#510000
b101001 )"
01
b101001 8
b101001 C
b101001 m
b101001 +"
b1000101001 7
b1000101001 B
b101001 9
#515000
b101001 #
b101001 A
b101001 E
b101001 Q
b101001 1"
11
#520000
b101010 )"
01
b101010 8
b101010 C
b101010 m
b101010 +"
b1000101010 7
b1000101010 B
b101010 9
#525000
b101010 #
b101010 A
b101010 E
b101010 Q
b101010 1"
11
#530000
b101011 )"
01
b101011 8
b101011 C
b101011 m
b101011 +"
b1000101011 7
b1000101011 B
b101011 9
#535000
b101011 #
b101011 A
b101011 E
b101011 Q
b101011 1"
11
#540000
b101100 )"
01
b101100 8
b101100 C
b101100 m
b101100 +"
b1000101100 7
b1000101100 B
b101100 9
#545000
b101100 #
b101100 A
b101100 E
b101100 Q
b101100 1"
11
#550000
b101101 )"
01
b101101 8
b101101 C
b101101 m
b101101 +"
b1000101101 7
b1000101101 B
b101101 9
#555000
b101101 #
b101101 A
b101101 E
b101101 Q
b101101 1"
11
#560000
b101110 )"
01
b101110 8
b101110 C
b101110 m
b101110 +"
b1000101110 7
b1000101110 B
b101110 9
#565000
b101110 #
b101110 A
b101110 E
b101110 Q
b101110 1"
11
#570000
b101111 )"
01
b101111 8
b101111 C
b101111 m
b101111 +"
b1000101111 7
b1000101111 B
b101111 9
#575000
b101111 #
b101111 A
b101111 E
b101111 Q
b101111 1"
11
#580000
b110000 )"
01
b110000 8
b110000 C
b110000 m
b110000 +"
b1000110000 7
b1000110000 B
b110000 9
#585000
b110000 #
b110000 A
b110000 E
b110000 Q
b110000 1"
11
#590000
b110001 )"
01
b110001 8
b110001 C
b110001 m
b110001 +"
b1000110001 7
b1000110001 B
b110001 9
#595000
b110001 #
b110001 A
b110001 E
b110001 Q
b110001 1"
11
#600000
b110010 )"
01
b110010 8
b110010 C
b110010 m
b110010 +"
b1000110010 7
b1000110010 B
b110010 9
#605000
b110010 #
b110010 A
b110010 E
b110010 Q
b110010 1"
11
#610000
b110011 )"
01
b110011 8
b110011 C
b110011 m
b110011 +"
b1000110011 7
b1000110011 B
b110011 9
#615000
b110011 #
b110011 A
b110011 E
b110011 Q
b110011 1"
11
#620000
b110100 )"
01
b110100 8
b110100 C
b110100 m
b110100 +"
b1000110100 7
b1000110100 B
b110100 9
#625000
b110100 #
b110100 A
b110100 E
b110100 Q
b110100 1"
11
#630000
b110101 )"
01
b110101 8
b110101 C
b110101 m
b110101 +"
b1000110101 7
b1000110101 B
b110101 9
#635000
b110101 #
b110101 A
b110101 E
b110101 Q
b110101 1"
11
#640000
b110110 )"
01
b110110 8
b110110 C
b110110 m
b110110 +"
b1000110110 7
b1000110110 B
b110110 9
#645000
b110110 #
b110110 A
b110110 E
b110110 Q
b110110 1"
11
#650000
b110111 )"
01
b110111 8
b110111 C
b110111 m
b110111 +"
b1000110111 7
b1000110111 B
b110111 9
#655000
b110111 #
b110111 A
b110111 E
b110111 Q
b110111 1"
11
#660000
b111000 )"
01
b111000 8
b111000 C
b111000 m
b111000 +"
b1000111000 7
b1000111000 B
b111000 9
#665000
b111000 #
b111000 A
b111000 E
b111000 Q
b111000 1"
11
#670000
b111001 )"
01
b111001 8
b111001 C
b111001 m
b111001 +"
b1000111001 7
b1000111001 B
b111001 9
#675000
b111001 #
b111001 A
b111001 E
b111001 Q
b111001 1"
11
#680000
b111010 )"
01
b111010 8
b111010 C
b111010 m
b111010 +"
b1000111010 7
b1000111010 B
b111010 9
#685000
b111010 #
b111010 A
b111010 E
b111010 Q
b111010 1"
11
#690000
b111011 )"
01
b111011 8
b111011 C
b111011 m
b111011 +"
b1000111011 7
b1000111011 B
b111011 9
#695000
b111011 #
b111011 A
b111011 E
b111011 Q
b111011 1"
11
#700000
b111100 )"
01
b111100 8
b111100 C
b111100 m
b111100 +"
b1000111100 7
b1000111100 B
b111100 9
#705000
b111100 #
b111100 A
b111100 E
b111100 Q
b111100 1"
11
#710000
b111101 )"
01
b111101 8
b111101 C
b111101 m
b111101 +"
b1000111101 7
b1000111101 B
b111101 9
#715000
b111101 #
b111101 A
b111101 E
b111101 Q
b111101 1"
11
#720000
b111110 )"
01
b111110 8
b111110 C
b111110 m
b111110 +"
b1000111110 7
b1000111110 B
b111110 9
#725000
b111110 #
b111110 A
b111110 E
b111110 Q
b111110 1"
11
#730000
b111111 )"
01
b111111 8
b111111 C
b111111 m
b111111 +"
b1000111111 7
b1000111111 B
b111111 9
#735000
b111111 #
b111111 A
b111111 E
b111111 Q
b111111 1"
11
#740000
b1000000 )"
01
b1000000 8
b1000000 C
b1000000 m
b1000000 +"
b1001000000 7
b1001000000 B
b1000000 9
#745000
b1000000 #
b1000000 A
b1000000 E
b1000000 Q
b1000000 1"
11
#750000
b1000001 )"
01
b1000001 8
b1000001 C
b1000001 m
b1000001 +"
b1001000001 7
b1001000001 B
b1000001 9
#755000
b1000001 #
b1000001 A
b1000001 E
b1000001 Q
b1000001 1"
11
#760000
b1000010 )"
01
b1000010 8
b1000010 C
b1000010 m
b1000010 +"
b1001000010 7
b1001000010 B
b1000010 9
#765000
b1000010 #
b1000010 A
b1000010 E
b1000010 Q
b1000010 1"
11
#770000
b1000011 )"
01
b1000011 8
b1000011 C
b1000011 m
b1000011 +"
b1001000011 7
b1001000011 B
b1000011 9
#775000
b1000011 #
b1000011 A
b1000011 E
b1000011 Q
b1000011 1"
11
#780000
b1000100 )"
01
b1000100 8
b1000100 C
b1000100 m
b1000100 +"
b1001000100 7
b1001000100 B
b1000100 9
#785000
b1000100 #
b1000100 A
b1000100 E
b1000100 Q
b1000100 1"
11
#790000
b1000101 )"
01
b1000101 8
b1000101 C
b1000101 m
b1000101 +"
b1001000101 7
b1001000101 B
b1000101 9
#795000
b1000101 #
b1000101 A
b1000101 E
b1000101 Q
b1000101 1"
11
#800000
b1000110 )"
01
b1000110 8
b1000110 C
b1000110 m
b1000110 +"
b1001000110 7
b1001000110 B
b1000110 9
#805000
b1000110 #
b1000110 A
b1000110 E
b1000110 Q
b1000110 1"
11
#810000
b1000111 )"
01
b1000111 8
b1000111 C
b1000111 m
b1000111 +"
b1001000111 7
b1001000111 B
b1000111 9
#815000
b1000111 #
b1000111 A
b1000111 E
b1000111 Q
b1000111 1"
11
#820000
b1001000 )"
01
b1001000 8
b1001000 C
b1001000 m
b1001000 +"
b1001001000 7
b1001001000 B
b1001000 9
#825000
b1001000 #
b1001000 A
b1001000 E
b1001000 Q
b1001000 1"
11
#830000
b1001001 )"
01
b1001001 8
b1001001 C
b1001001 m
b1001001 +"
b1001001001 7
b1001001001 B
b1001001 9
#835000
b1001001 #
b1001001 A
b1001001 E
b1001001 Q
b1001001 1"
11
#840000
b1001010 )"
01
b1001010 8
b1001010 C
b1001010 m
b1001010 +"
b1001001010 7
b1001001010 B
b1001010 9
#845000
b1001010 #
b1001010 A
b1001010 E
b1001010 Q
b1001010 1"
11
#850000
b1001011 )"
01
b1001011 8
b1001011 C
b1001011 m
b1001011 +"
b1001001011 7
b1001001011 B
b1001011 9
#855000
b1001011 #
b1001011 A
b1001011 E
b1001011 Q
b1001011 1"
11
#860000
b1001100 )"
01
b1001100 8
b1001100 C
b1001100 m
b1001100 +"
b1001001100 7
b1001001100 B
b1001100 9
#865000
b1001100 #
b1001100 A
b1001100 E
b1001100 Q
b1001100 1"
11
#870000
b1001101 )"
01
b1001101 8
b1001101 C
b1001101 m
b1001101 +"
b1001001101 7
b1001001101 B
b1001101 9
#875000
b1001101 #
b1001101 A
b1001101 E
b1001101 Q
b1001101 1"
11
#880000
b1001110 )"
01
b1001110 8
b1001110 C
b1001110 m
b1001110 +"
b1001001110 7
b1001001110 B
b1001110 9
#885000
b1001110 #
b1001110 A
b1001110 E
b1001110 Q
b1001110 1"
11
#890000
b1001111 )"
01
b1001111 8
b1001111 C
b1001111 m
b1001111 +"
b1001001111 7
b1001001111 B
b1001111 9
#895000
b1001111 #
b1001111 A
b1001111 E
b1001111 Q
b1001111 1"
11
#900000
b1010000 )"
01
b1010000 8
b1010000 C
b1010000 m
b1010000 +"
b1001010000 7
b1001010000 B
b1010000 9
#905000
b1010000 #
b1010000 A
b1010000 E
b1010000 Q
b1010000 1"
11
#910000
b1010001 )"
01
b1010001 8
b1010001 C
b1010001 m
b1010001 +"
b1001010001 7
b1001010001 B
b1010001 9
#915000
b1010001 #
b1010001 A
b1010001 E
b1010001 Q
b1010001 1"
11
#920000
b1010010 )"
01
b1010010 8
b1010010 C
b1010010 m
b1010010 +"
b1001010010 7
b1001010010 B
b1010010 9
#925000
b1010010 #
b1010010 A
b1010010 E
b1010010 Q
b1010010 1"
11
#930000
b1010011 )"
01
b1010011 8
b1010011 C
b1010011 m
b1010011 +"
b1001010011 7
b1001010011 B
b1010011 9
#935000
b1010011 #
b1010011 A
b1010011 E
b1010011 Q
b1010011 1"
11
#940000
b1010100 )"
01
b1010100 8
b1010100 C
b1010100 m
b1010100 +"
b1001010100 7
b1001010100 B
b1010100 9
#945000
b1010100 #
b1010100 A
b1010100 E
b1010100 Q
b1010100 1"
11
#950000
b1010101 )"
01
b1010101 8
b1010101 C
b1010101 m
b1010101 +"
b1001010101 7
b1001010101 B
b1010101 9
#955000
b1010101 #
b1010101 A
b1010101 E
b1010101 Q
b1010101 1"
11
#960000
b1010110 )"
01
b1010110 8
b1010110 C
b1010110 m
b1010110 +"
b1001010110 7
b1001010110 B
b1010110 9
#965000
b1010110 #
b1010110 A
b1010110 E
b1010110 Q
b1010110 1"
11
#970000
b1010111 )"
01
b1010111 8
b1010111 C
b1010111 m
b1010111 +"
b1001010111 7
b1001010111 B
b1010111 9
#975000
b1010111 #
b1010111 A
b1010111 E
b1010111 Q
b1010111 1"
11
#980000
b1011000 )"
01
b1011000 8
b1011000 C
b1011000 m
b1011000 +"
b1001011000 7
b1001011000 B
b1011000 9
#985000
b1011000 #
b1011000 A
b1011000 E
b1011000 Q
b1011000 1"
11
#990000
b1011001 )"
01
b1011001 8
b1011001 C
b1011001 m
b1011001 +"
b1001011001 7
b1001011001 B
b1011001 9
#995000
b1011001 #
b1011001 A
b1011001 E
b1011001 Q
b1011001 1"
11
#1000000
b1011010 )"
01
b1011010 8
b1011010 C
b1011010 m
b1011010 +"
b1001011010 7
b1001011010 B
b1011010 9
#1005000
b1011010 #
b1011010 A
b1011010 E
b1011010 Q
b1011010 1"
11
#1010000
b1011011 )"
01
b1011011 8
b1011011 C
b1011011 m
b1011011 +"
b1001011011 7
b1001011011 B
b1011011 9
#1015000
b1011011 #
b1011011 A
b1011011 E
b1011011 Q
b1011011 1"
11
#1020000
b1011100 )"
01
b1011100 8
b1011100 C
b1011100 m
b1011100 +"
b1001011100 7
b1001011100 B
b1011100 9
#1025000
b1011100 #
b1011100 A
b1011100 E
b1011100 Q
b1011100 1"
11
#1030000
b1011101 )"
01
b1011101 8
b1011101 C
b1011101 m
b1011101 +"
b1001011101 7
b1001011101 B
b1011101 9
#1035000
b1011101 #
b1011101 A
b1011101 E
b1011101 Q
b1011101 1"
11
#1040000
b1011110 )"
01
b1011110 8
b1011110 C
b1011110 m
b1011110 +"
b1001011110 7
b1001011110 B
b1011110 9
#1045000
b1011110 #
b1011110 A
b1011110 E
b1011110 Q
b1011110 1"
11
#1050000
b1011111 )"
01
b1011111 8
b1011111 C
b1011111 m
b1011111 +"
b1001011111 7
b1001011111 B
b1011111 9
#1055000
b1011111 #
b1011111 A
b1011111 E
b1011111 Q
b1011111 1"
11
#1060000
b1100000 )"
01
b1100000 8
b1100000 C
b1100000 m
b1100000 +"
b1001100000 7
b1001100000 B
b1100000 9
#1065000
b1100000 #
b1100000 A
b1100000 E
b1100000 Q
b1100000 1"
11
#1070000
b1100001 )"
01
b1100001 8
b1100001 C
b1100001 m
b1100001 +"
b1001100001 7
b1001100001 B
b1100001 9
#1075000
b1100001 #
b1100001 A
b1100001 E
b1100001 Q
b1100001 1"
11
#1080000
b1100010 )"
01
b1100010 8
b1100010 C
b1100010 m
b1100010 +"
b1001100010 7
b1001100010 B
b1100010 9
#1085000
b1100010 #
b1100010 A
b1100010 E
b1100010 Q
b1100010 1"
11
#1090000
b1100011 )"
01
b1100011 8
b1100011 C
b1100011 m
b1100011 +"
b1001100011 7
b1001100011 B
b1100011 9
#1095000
b1100011 #
b1100011 A
b1100011 E
b1100011 Q
b1100011 1"
11
#1100000
b1100100 )"
01
b1100100 8
b1100100 C
b1100100 m
b1100100 +"
b1001100100 7
b1001100100 B
b1100100 9
#1105000
b1100100 #
b1100100 A
b1100100 E
b1100100 Q
b1100100 1"
11
#1110000
b1100101 )"
01
b1100101 8
b1100101 C
b1100101 m
b1100101 +"
b1001100101 7
b1001100101 B
b1100101 9
#1115000
b1100101 #
b1100101 A
b1100101 E
b1100101 Q
b1100101 1"
11
#1120000
b1100110 )"
01
b1100110 8
b1100110 C
b1100110 m
b1100110 +"
b1001100110 7
b1001100110 B
b1100110 9
#1125000
b1100110 #
b1100110 A
b1100110 E
b1100110 Q
b1100110 1"
11
#1130000
b1100111 )"
01
b1100111 8
b1100111 C
b1100111 m
b1100111 +"
b1001100111 7
b1001100111 B
b1100111 9
#1135000
b1100111 #
b1100111 A
b1100111 E
b1100111 Q
b1100111 1"
11
#1140000
b1101000 )"
01
b1101000 8
b1101000 C
b1101000 m
b1101000 +"
b1001101000 7
b1001101000 B
b1101000 9
#1145000
b1101000 #
b1101000 A
b1101000 E
b1101000 Q
b1101000 1"
11
#1150000
b1101001 )"
01
b1101001 8
b1101001 C
b1101001 m
b1101001 +"
b1001101001 7
b1001101001 B
b1101001 9
#1155000
b1101001 #
b1101001 A
b1101001 E
b1101001 Q
b1101001 1"
11
#1160000
b1101010 )"
01
b1101010 8
b1101010 C
b1101010 m
b1101010 +"
b1001101010 7
b1001101010 B
b1101010 9
#1165000
b1101010 #
b1101010 A
b1101010 E
b1101010 Q
b1101010 1"
11
#1170000
b1101011 )"
01
b1101011 8
b1101011 C
b1101011 m
b1101011 +"
b1001101011 7
b1001101011 B
b1101011 9
#1175000
b1101011 #
b1101011 A
b1101011 E
b1101011 Q
b1101011 1"
11
#1180000
b1101100 )"
01
b1101100 8
b1101100 C
b1101100 m
b1101100 +"
b1001101100 7
b1001101100 B
b1101100 9
#1185000
b1101100 #
b1101100 A
b1101100 E
b1101100 Q
b1101100 1"
11
#1190000
b1101101 )"
01
b1101101 8
b1101101 C
b1101101 m
b1101101 +"
b1001101101 7
b1001101101 B
b1101101 9
#1195000
b1101101 #
b1101101 A
b1101101 E
b1101101 Q
b1101101 1"
11
