lab-6/virtual_prototype/modules/DMA/ramDmaCi.vcd
$date
	Tue Apr 16 18:10:29 2024
$end
$version
	Icarus Verilog
$end
$timescale
	1ps
$end
$scope module dma_controller_tb $end
$var wire 32 ! addressData [31:0] $end
$var wire 1 " dataValid $end
$var wire 32 # result [31:0] $end
$var wire 1 $ requestTransaction $end
$var wire 1 % done $end
$var wire 1 & dataValidOut $end
$var wire 8 ' burstSizeOut [7:0] $end
$var wire 1 ( beginTransactionOut $end
$var wire 32 ) addressDataOut [31:0] $end
$var parameter 8 * customIdCPU $end
$var parameter 8 + customIdDMA $end
$var reg 32 , addressDataIn [31:0] $end
$var reg 1 - beginTransactionIn $end
$var reg 1 . busErrorIn $end
$var reg 1 / busyBitIn $end
$var reg 8 0 ciN [7:0] $end
$var reg 1 1 clock $end
$var reg 1 2 dataValidIn $end
$var reg 1 3 endTransactionIn $end
$var reg 1 4 reset $end
$var reg 1 5 start $end
$var reg 1 6 transactionGranted $end
$var reg 32 7 valueA [31:0] $end
$var reg 32 8 valueB [31:0] $end
$var integer 32 9 i [31:0] $end
$scope module uut $end
$var wire 32 : address_data_in [31:0] $end
$var wire 1 / busy_in $end
$var wire 4 ; byte_enables_out [3:0] $end
$var wire 8 < ciN [7:0] $end
$var wire 1 1 clock $end
$var wire 1 " data_valid_in $end
$var wire 1 % done $end
$var wire 1 3 end_transaction_in $end
$var wire 1 . error_in $end
$var wire 1 6 grantRequest $end
$var wire 1 = is_valid $end
$var wire 1 4 reset $end
$var wire 32 > result [31:0] $end
$var wire 1 5 start $end
$var wire 32 ? valueA [31:0] $end
$var wire 32 @ valueB [31:0] $end
$var wire 2 A status [1:0] $end
$var wire 32 B resultMem [31:0] $end
$var wire 32 C resultDMA [31:0] $end
$var wire 1 D read_n_write_out $end
$var wire 1 E memWriteEnable $end
$var wire 32 F memDataOut [31:0] $end
$var wire 32 G memDataIn [31:0] $end
$var wire 9 H memAddress [8:0] $end
$var wire 1 I is_memory $end
$var wire 1 J end_transaction_out $end
$var wire 1 K doneMem $end
$var wire 1 L doneDMA $end
$var wire 1 & data_valid_out $end
$var wire 32 M dataOutA [31:0] $end
$var wire 1 $ busRequest $end
$var wire 8 N burst_size_out [7:0] $end
$var wire 1 ( begin_transaction_out $end
$var wire 32 O address_data_out [31:0] $end
$var parameter 8 P customId $end
$var reg 32 Q address_data_in_r [31:0] $end
$var reg 1 R busy_in_r $end
$var reg 2 S counter [1:0] $end
$var reg 1 T data_valid_in_r $end
$var reg 1 U end_transaction_in_r $end
$var reg 1 V error_in_r $end
$var reg 1 W grantRequest_r $end
$scope module dmaController $end
$var wire 32 X address_data_in [31:0] $end
$var wire 1 R busy_in $end
$var wire 4 Y byte_enables_out [3:0] $end
$var wire 1 1 clock $end
$var wire 3 Z configurationBits [2:0] $end
$var wire 1 T data_valid_in $end
$var wire 1 & data_valid_out $end
$var wire 1 U end_transaction_in $end
$var wire 1 V error_in $end
$var wire 1 W grantRequest $end
$var wire 9 [ memAddress [8:0] $end
$var wire 32 \ memDataOut [31:0] $end
$var wire 1 4 reset $end
$var wire 2 ] status [1:0] $end
$var wire 1 = validInstruction $end
$var wire 1 ^ writeEnable $end
$var wire 32 _ writeSettings [31:0] $end
$var wire 1 D read_n_write_out $end
$var wire 32 ` readSettings [31:0] $end
$var wire 1 E memWriteEnable $end
$var wire 32 a memDataIn [31:0] $end
$var wire 1 J end_transaction_out $end
$var wire 1 b data_valid_sc $end
$var wire 1 $ busRequest $end
$var wire 8 c burst_size_out [7:0] $end
$var wire 1 ( begin_transaction_out $end
$var wire 32 d address_data_out [31:0] $end
$var parameter 3 e C2R $end
$var parameter 3 f CLOSE $end
$var parameter 3 g IDLE $end
$var parameter 3 h INIT $end
$var parameter 3 i READ $end
$var parameter 3 j REQUEST $end
$var parameter 3 k WRITE $end
$var reg 10 l blockCounter [9:0] $end
$var reg 10 m blockSize [9:0] $end
$var reg 9 n burstCounter [8:0] $end
$var reg 9 o burstSize [8:0] $end
$var reg 32 p busAddress [31:0] $end
$var reg 32 q busStart [31:0] $end
$var reg 2 r controlRegister [1:0] $end
$var reg 9 s memAddress_r [8:0] $end
$var reg 3 t memCounter [0:2] $end
$var reg 9 u memoryStart [8:0] $end
$var reg 3 v state [2:0] $end
$var reg 2 w statusRegister [1:0] $end
$upscope $end
$scope module memory $end
$var wire 9 x addressA [8:0] $end
$var wire 9 y addressB [8:0] $end
$var wire 1 1 clockA $end
$var wire 1 z clockB $end
$var wire 32 { dataInA [31:0] $end
$var wire 32 | dataInB [31:0] $end
$var wire 1 } writeEnableA $end
$var wire 1 E writeEnableB $end
$var parameter 32 ~ bitwidth $end
$var parameter 32 !" nrOfEntries $end
$var parameter 32 "" readAfterWrite $end
$var reg 32 #" dataOutA [31:0] $end
$var reg 32 $" dataOutB [31:0] $end
$upscope $end
$upscope $end
$upscope $end
$enddefinitions $end
$comment Show the parameter values. $end
$dumpall
b0 ""
b1000000000 !"
b100000 ~
b101 k
b1 j
b11 i
b10 h
b0 g
b100 f
b110 e
b11111110 P
b11111110 +
b11111101 *
$end
#0
$dumpvars
bx $"
bx #"
0}
bx |
b0 {
1z
bx y
b0 x
bx w
bx v
bx u
b0 t
bx s
bx r
bx q
bx p
bx o
bx n
bx m
bx l
bx d
bx c
0b
bx a
b0 `
b0 _
0^
bx ]
bx \
bx [
b0 Z
bz Y
bx X
xW
xV
xU
xT
bx S
xR
bx Q
bx O
bx N
bx M
0L
0K
xJ
1I
bx H
bx G
bx F
xE
xD
b0 C
b0 B
bx A
b0 @
b0 ?
b0 >
0=
b0 <
bz ;
bx :
bx 9
b0 8
b0 7
16
05
14
03
02
01
b0 0
0/
0.
0-
b0 ,
bx )
x(
bx '
0&
0%
x$
b0 #
0"
bx !
$end
#5000
0E
b0 !
b0 :
b0 '
b0 N
b0 c
0J
0$
0(
0D
b0 )
b0 O
b0 d
b0 r
b0 A
b0 ]
b0 w
b0 o
b0 m
b0 u
b0 q
b0 H
b0 [
b0 y
b0 s
b0 p
b0 l
b0 n
b0 v
b0 F
b0 \
b0 |
b0 Q
b0 X
0W
0V
0R
0T
0U
0z
b0 S
11
#10000
1z
01
#15000
0z
11
#20000
1z
01
#25000
0z
11
#30000
1z
01
#35000
0z
11
#40000
1z
01
#45000
0z
11
#50000
1z
01
#55000
0z
11
#60000
1z
01
#65000
0z
11
#70000
1z
01
#75000
0z
11
#80000
1z
01
#85000
0z
11
#90000
1z
01
#95000
0z
11
#100000
1z
01
#105000
1W
1%
bx #
bx >
1K
bx B
1}
0z
1^
1=
11
b1000000000 7
b1000000000 ?
b0 9
b11111110 0
b11111110 <
15
04
#110000
1z
01
#115000
b1 #
b1 >
b1 B
0z
b1 M
b1 #"
b1 x
11
b1 8
b1 @
b1 _
b1 {
b1000000001 7
b1000000001 ?
b1 9
#120000
1z
01
#125000
b10 #
b10 >
b10 B
0z
b10 M
b10 #"
b10 x
11
b10 8
b10 @
b10 _
b10 {
b1000000010 7
b1000000010 ?
b10 9
#130000
1z
01
#135000
b11 #
b11 >
b11 B
0z
b11 M
b11 #"
b11 x
11
b11 8
b11 @
b11 _
b11 {
b1000000011 7
b1000000011 ?
b11 9
#140000
1z
01
#145000
b100 #
b100 >
b100 B
0z
b100 M
b100 #"
b100 x
11
b100 8
b100 @
b100 _
b100 {
b1000000100 7
b1000000100 ?
b100 9
#150000
1z
01
#155000
b101 #
b101 >
b101 B
0z
b101 M
b101 #"
b101 x
11
b101 8
b101 @
b101 _
b101 {
b1000000101 7
b1000000101 ?
b101 9
#160000
1z
01
#165000
b110 #
b110 >
b110 B
0z
b110 M
b110 #"
b110 x
11
b110 8
b110 @
b110 _
b110 {
b1000000110 7
b1000000110 ?
b110 9
#170000
1z
01
#175000
b111 #
b111 >
b111 B
0z
b111 M
b111 #"
b111 x
11
b111 8
b111 @
b111 _
b111 {
b1000000111 7
b1000000111 ?
b111 9
#180000
1z
01
#185000
b1000 #
b1000 >
b1000 B
0z
b1000 M
b1000 #"
b1000 x
11
b1000 8
b1000 @
b1000 _
b1000 {
b1000001000 7
b1000001000 ?
b1000 9
#190000
1z
01
#195000
b1001 #
b1001 >
b1001 B
0z
b1001 M
b1001 #"
b1001 x
11
b1001 8
b1001 @
b1001 _
b1001 {
b1000001001 7
b1000001001 ?
b1001 9
#200000
1z
01
#205000
b1010 #
b1010 >
b1010 B
0z
b1010 M
b1010 #"
b1010 x
11
b1010 8
b1010 @
b1010 _
b1010 {
b1000001010 7
b1000001010 ?
b1010 9
#210000
1z
01
#215000
b1011 #
b1011 >
b1011 B
0z
b1011 M
b1011 #"
b1011 x
11
b1011 8
b1011 @
b1011 _
b1011 {
b1000001011 7
b1000001011 ?
b1011 9
#220000
1z
01
#225000
b1100 #
b1100 >
b1100 B
0z
b1100 M
b1100 #"
b1100 x
11
b1100 8
b1100 @
b1100 _
b1100 {
b1000001100 7
b1000001100 ?
b1100 9
#230000
1z
01
#235000
b1101 #
b1101 >
b1101 B
0z
b1101 M
b1101 #"
b1101 x
11
b1101 8
b1101 @
b1101 _
b1101 {
b1000001101 7
b1000001101 ?
b1101 9
#240000
1z
01
#245000
b1110 #
b1110 >
b1110 B
0z
b1110 M
b1110 #"
b1110 x
11
b1110 8
b1110 @
b1110 _
b1110 {
b1000001110 7
b1000001110 ?
b1110 9
#250000
1z
01
#255000
b1111 #
b1111 >
b1111 B
0z
b1111 M
b1111 #"
b1111 x
11
b1111 8
b1111 @
b1111 _
b1111 {
b1000001111 7
b1000001111 ?
b1111 9
#260000
1z
01
#265000
b10000 #
b10000 >
b10000 B
0z
b10000 M
b10000 #"
b10000 x
11
b10000 8
b10000 @
b10000 _
b10000 {
b1000010000 7
b1000010000 ?
b10000 9
#270000
1z
01
#275000
b10001 #
b10001 >
b10001 B
0z
b10001 M
b10001 #"
b10001 x
11
b10001 8
b10001 @
b10001 _
b10001 {
b1000010001 7
b1000010001 ?
b10001 9
#280000
1z
01
#285000
b10010 #
b10010 >
b10010 B
0z
b10010 M
b10010 #"
b10010 x
11
b10010 8
b10010 @
b10010 _
b10010 {
b1000010010 7
b1000010010 ?
b10010 9
#290000
1z
01
#295000
b10011 #
b10011 >
b10011 B
0z
b10011 M
b10011 #"
b10011 x
11
b10011 8
b10011 @
b10011 _
b10011 {
b1000010011 7
b1000010011 ?
b10011 9
#300000
1z
01
#305000
b10100 #
b10100 >
b10100 B
0z
b10100 M
b10100 #"
b10100 x
11
b10100 8
b10100 @
b10100 _
b10100 {
b1000010100 7
b1000010100 ?
b10100 9
#310000
1z
01
#315000
b10101 #
b10101 >
b10101 B
0z
b10101 M
b10101 #"
b10101 x
11
b10101 8
b10101 @
b10101 _
b10101 {
b1000010101 7
b1000010101 ?
b10101 9
#320000
1z
01
#325000
b10110 #
b10110 >
b10110 B
0z
b10110 M
b10110 #"
b10110 x
11
b10110 8
b10110 @
b10110 _
b10110 {
b1000010110 7
b1000010110 ?
b10110 9
#330000
1z
01
#335000
b10111 #
b10111 >
b10111 B
0z
b10111 M
b10111 #"
b10111 x
11
b10111 8
b10111 @
b10111 _
b10111 {
b1000010111 7
b1000010111 ?
b10111 9
#340000
1z
01
#345000
b11000 #
b11000 >
b11000 B
0z
b11000 M
b11000 #"
b11000 x
11
b11000 8
b11000 @
b11000 _
b11000 {
b1000011000 7
b1000011000 ?
b11000 9
#350000
1z
01
#355000
b11001 #
b11001 >
b11001 B
0z
b11001 M
b11001 #"
b11001 x
11
b11001 8
b11001 @
b11001 _
b11001 {
b1000011001 7
b1000011001 ?
b11001 9
#360000
1z
01
#365000
b11010 #
b11010 >
b11010 B
0z
b11010 M
b11010 #"
b11010 x
11
b11010 8
b11010 @
b11010 _
b11010 {
b1000011010 7
b1000011010 ?
b11010 9
#370000
1z
01
#375000
b11011 #
b11011 >
b11011 B
0z
b11011 M
b11011 #"
b11011 x
11
b11011 8
b11011 @
b11011 _
b11011 {
b1000011011 7
b1000011011 ?
b11011 9
#380000
1z
01
#385000
b11100 #
b11100 >
b11100 B
0z
b11100 M
b11100 #"
b11100 x
11
b11100 8
b11100 @
b11100 _
b11100 {
b1000011100 7
b1000011100 ?
b11100 9
#390000
1z
01
#395000
b11101 #
b11101 >
b11101 B
0z
b11101 M
b11101 #"
b11101 x
11
b11101 8
b11101 @
b11101 _
b11101 {
b1000011101 7
b1000011101 ?
b11101 9
#400000
1z
01
#405000
b11110 #
b11110 >
b11110 B
0z
b11110 M
b11110 #"
b11110 x
11
b11110 8
b11110 @
b11110 _
b11110 {
b1000011110 7
b1000011110 ?
b11110 9
#410000
1z
01
#415000
b11111 #
b11111 >
b11111 B
0z
b11111 M
b11111 #"
b11111 x
11
b11111 8
b11111 @
b11111 _
b11111 {
b1000011111 7
b1000011111 ?
b11111 9
#420000
1z
01
#425000
b100000 #
b100000 >
b100000 B
0z
b100000 M
b100000 #"
b100000 x
11
b100000 8
b100000 @
b100000 _
b100000 {
b1000100000 7
b1000100000 ?
b100000 9
#430000
1z
01
#435000
b100001 #
b100001 >
b100001 B
0z
b100001 M
b100001 #"
b100001 x
11
b100001 8
b100001 @
b100001 _
b100001 {
b1000100001 7
b1000100001 ?
b100001 9
#440000
1z
01
#445000
b100010 #
b100010 >
b100010 B
0z
b100010 M
b100010 #"
b100010 x
11
b100010 8
b100010 @
b100010 _
b100010 {
b1000100010 7
b1000100010 ?
b100010 9
#450000
1z
01
#455000
b100011 #
b100011 >
b100011 B
0z
b100011 M
b100011 #"
b100011 x
11
b100011 8
b100011 @
b100011 _
b100011 {
b1000100011 7
b1000100011 ?
b100011 9
#460000
1z
01
#465000
b100100 #
b100100 >
b100100 B
0z
b100100 M
b100100 #"
b100100 x
11
b100100 8
b100100 @
b100100 _
b100100 {
b1000100100 7
b1000100100 ?
b100100 9
#470000
1z
01
#475000
b100101 #
b100101 >
b100101 B
0z
b100101 M
b100101 #"
b100101 x
11
b100101 8
b100101 @
b100101 _
b100101 {
b1000100101 7
b1000100101 ?
b100101 9
#480000
1z
01
#485000
b100110 #
b100110 >
b100110 B
0z
b100110 M
b100110 #"
b100110 x
11
b100110 8
b100110 @
b100110 _
b100110 {
b1000100110 7
b1000100110 ?
b100110 9
#490000
1z
01
#495000
b100111 #
b100111 >
b100111 B
0z
b100111 M
b100111 #"
b100111 x
11
b100111 8
b100111 @
b100111 _
b100111 {
b1000100111 7
b1000100111 ?
b100111 9
#500000
1z
01
#505000
b101000 #
b101000 >
b101000 B
0z
b101000 M
b101000 #"
b101000 x
11
b101000 8
b101000 @
b101000 _
b101000 {
b1000101000 7
b1000101000 ?
b101000 9
#510000
1z
01
#515000
b101001 #
b101001 >
b101001 B
0z
b101001 M
b101001 #"
b101001 x
11
b101001 8
b101001 @
b101001 _
b101001 {
b1000101001 7
b1000101001 ?
b101001 9
#520000
1z
01
#525000
b101010 #
b101010 >
b101010 B
0z
b101010 M
b101010 #"
b101010 x
11
b101010 8
b101010 @
b101010 _
b101010 {
b1000101010 7
b1000101010 ?
b101010 9
#530000
1z
01
#535000
b101011 #
b101011 >
b101011 B
0z
b101011 M
b101011 #"
b101011 x
11
b101011 8
b101011 @
b101011 _
b101011 {
b1000101011 7
b1000101011 ?
b101011 9
#540000
1z
01
#545000
b101100 #
b101100 >
b101100 B
0z
b101100 M
b101100 #"
b101100 x
11
b101100 8
b101100 @
b101100 _
b101100 {
b1000101100 7
b1000101100 ?
b101100 9
#550000
1z
01
#555000
b101101 #
b101101 >
b101101 B
0z
b101101 M
b101101 #"
b101101 x
11
b101101 8
b101101 @
b101101 _
b101101 {
b1000101101 7
b1000101101 ?
b101101 9
#560000
1z
01
#565000
b101110 #
b101110 >
b101110 B
0z
b101110 M
b101110 #"
b101110 x
11
b101110 8
b101110 @
b101110 _
b101110 {
b1000101110 7
b1000101110 ?
b101110 9
#570000
1z
01
#575000
b101111 #
b101111 >
b101111 B
0z
b101111 M
b101111 #"
b101111 x
11
b101111 8
b101111 @
b101111 _
b101111 {
b1000101111 7
b1000101111 ?
b101111 9
#580000
1z
01
#585000
b110000 #
b110000 >
b110000 B
0z
b110000 M
b110000 #"
b110000 x
11
b110000 8
b110000 @
b110000 _
b110000 {
b1000110000 7
b1000110000 ?
b110000 9
#590000
1z
01
#595000
b110001 #
b110001 >
b110001 B
0z
b110001 M
b110001 #"
b110001 x
11
b110001 8
b110001 @
b110001 _
b110001 {
b1000110001 7
b1000110001 ?
b110001 9
#600000
1z
01
#605000
b110010 #
b110010 >
b110010 B
0z
b110010 M
b110010 #"
b110010 x
11
b110010 8
b110010 @
b110010 _
b110010 {
b1000110010 7
b1000110010 ?
b110010 9
#610000
1z
01
#615000
b110011 #
b110011 >
b110011 B
0z
b110011 M
b110011 #"
b110011 x
11
b110011 8
b110011 @
b110011 _
b110011 {
b1000110011 7
b1000110011 ?
b110011 9
#620000
1z
01
#625000
b110100 #
b110100 >
b110100 B
0z
b110100 M
b110100 #"
b110100 x
11
b110100 8
b110100 @
b110100 _
b110100 {
b1000110100 7
b1000110100 ?
b110100 9
#630000
1z
01
#635000
b110101 #
b110101 >
b110101 B
0z
b110101 M
b110101 #"
b110101 x
11
b110101 8
b110101 @
b110101 _
b110101 {
b1000110101 7
b1000110101 ?
b110101 9
#640000
1z
01
#645000
b110110 #
b110110 >
b110110 B
0z
b110110 M
b110110 #"
b110110 x
11
b110110 8
b110110 @
b110110 _
b110110 {
b1000110110 7
b1000110110 ?
b110110 9
#650000
1z
01
#655000
b110111 #
b110111 >
b110111 B
0z
b110111 M
b110111 #"
b110111 x
11
b110111 8
b110111 @
b110111 _
b110111 {
b1000110111 7
b1000110111 ?
b110111 9
#660000
1z
01
#665000
b111000 #
b111000 >
b111000 B
0z
b111000 M
b111000 #"
b111000 x
11
b111000 8
b111000 @
b111000 _
b111000 {
b1000111000 7
b1000111000 ?
b111000 9
#670000
1z
01
#675000
b111001 #
b111001 >
b111001 B
0z
b111001 M
b111001 #"
b111001 x
11
b111001 8
b111001 @
b111001 _
b111001 {
b1000111001 7
b1000111001 ?
b111001 9
#680000
1z
01
#685000
b111010 #
b111010 >
b111010 B
0z
b111010 M
b111010 #"
b111010 x
11
b111010 8
b111010 @
b111010 _
b111010 {
b1000111010 7
b1000111010 ?
b111010 9
#690000
1z
01
#695000
b111011 #
b111011 >
b111011 B
0z
b111011 M
b111011 #"
b111011 x
11
b111011 8
b111011 @
b111011 _
b111011 {
b1000111011 7
b1000111011 ?
b111011 9
#700000
1z
01
#705000
b111100 #
b111100 >
b111100 B
0z
b111100 M
b111100 #"
b111100 x
11
b111100 8
b111100 @
b111100 _
b111100 {
b1000111100 7
b1000111100 ?
b111100 9
#710000
1z
01
#715000
b111101 #
b111101 >
b111101 B
0z
b111101 M
b111101 #"
b111101 x
11
b111101 8
b111101 @
b111101 _
b111101 {
b1000111101 7
b1000111101 ?
b111101 9
#720000
1z
01
#725000
b111110 #
b111110 >
b111110 B
0z
b111110 M
b111110 #"
b111110 x
11
b111110 8
b111110 @
b111110 _
b111110 {
b1000111110 7
b1000111110 ?
b111110 9
#730000
1z
01
#735000
b111111 #
b111111 >
b111111 B
0z
b111111 M
b111111 #"
b111111 x
11
b111111 8
b111111 @
b111111 _
b111111 {
b1000111111 7
b1000111111 ?
b111111 9
#740000
1z
01
#745000
b1000000 #
b1000000 >
b1000000 B
0z
b1000000 M
b1000000 #"
b1000000 x
11
b1000000 8
b1000000 @
b1000000 _
b1000000 {
b1001000000 7
b1001000000 ?
b1000000 9
#750000
1z
01
#755000
b1000001 #
b1000001 >
b1000001 B
0z
b1000001 M
b1000001 #"
b1000001 x
11
b1000001 8
b1000001 @
b1000001 _
b1000001 {
b1001000001 7
b1001000001 ?
b1000001 9
#760000
1z
01
#765000
b1000010 #
b1000010 >
b1000010 B
0z
b1000010 M
b1000010 #"
b1000010 x
11
b1000010 8
b1000010 @
b1000010 _
b1000010 {
b1001000010 7
b1001000010 ?
b1000010 9
#770000
1z
01
#775000
b1000011 #
b1000011 >
b1000011 B
0z
b1000011 M
b1000011 #"
b1000011 x
11
b1000011 8
b1000011 @
b1000011 _
b1000011 {
b1001000011 7
b1001000011 ?
b1000011 9
#780000
1z
01
#785000
b1000100 #
b1000100 >
b1000100 B
0z
b1000100 M
b1000100 #"
b1000100 x
11
b1000100 8
b1000100 @
b1000100 _
b1000100 {
b1001000100 7
b1001000100 ?
b1000100 9
#790000
1z
01
#795000
b1000101 #
b1000101 >
b1000101 B
0z
b1000101 M
b1000101 #"
b1000101 x
11
b1000101 8
b1000101 @
b1000101 _
b1000101 {
b1001000101 7
b1001000101 ?
b1000101 9
#800000
1z
01
#805000
b1000110 #
b1000110 >
b1000110 B
0z
b1000110 M
b1000110 #"
b1000110 x
11
b1000110 8
b1000110 @
b1000110 _
b1000110 {
b1001000110 7
b1001000110 ?
b1000110 9
#810000
1z
01
#815000
b1000111 #
b1000111 >
b1000111 B
0z
b1000111 M
b1000111 #"
b1000111 x
11
b1000111 8
b1000111 @
b1000111 _
b1000111 {
b1001000111 7
b1001000111 ?
b1000111 9
#820000
1z
01
#825000
b1001000 #
b1001000 >
b1001000 B
0z
b1001000 M
b1001000 #"
b1001000 x
11
b1001000 8
b1001000 @
b1001000 _
b1001000 {
b1001001000 7
b1001001000 ?
b1001000 9
#830000
1z
01
#835000
b1001001 #
b1001001 >
b1001001 B
0z
b1001001 M
b1001001 #"
b1001001 x
11
b1001001 8
b1001001 @
b1001001 _
b1001001 {
b1001001001 7
b1001001001 ?
b1001001 9
#840000
1z
01
#845000
b1001010 #
b1001010 >
b1001010 B
0z
b1001010 M
b1001010 #"
b1001010 x
11
b1001010 8
b1001010 @
b1001010 _
b1001010 {
b1001001010 7
b1001001010 ?
b1001010 9
#850000
1z
01
#855000
b1001011 #
b1001011 >
b1001011 B
0z
b1001011 M
b1001011 #"
b1001011 x
11
b1001011 8
b1001011 @
b1001011 _
b1001011 {
b1001001011 7
b1001001011 ?
b1001011 9
#860000
1z
01
#865000
b1001100 #
b1001100 >
b1001100 B
0z
b1001100 M
b1001100 #"
b1001100 x
11
b1001100 8
b1001100 @
b1001100 _
b1001100 {
b1001001100 7
b1001001100 ?
b1001100 9
#870000
1z
01
#875000
b1001101 #
b1001101 >
b1001101 B
0z
b1001101 M
b1001101 #"
b1001101 x
11
b1001101 8
b1001101 @
b1001101 _
b1001101 {
b1001001101 7
b1001001101 ?
b1001101 9
#880000
1z
01
#885000
b1001110 #
b1001110 >
b1001110 B
0z
b1001110 M
b1001110 #"
b1001110 x
11
b1001110 8
b1001110 @
b1001110 _
b1001110 {
b1001001110 7
b1001001110 ?
b1001110 9
#890000
1z
01
#895000
b1001111 #
b1001111 >
b1001111 B
0z
b1001111 M
b1001111 #"
b1001111 x
11
b1001111 8
b1001111 @
b1001111 _
b1001111 {
b1001001111 7
b1001001111 ?
b1001111 9
#900000
1z
01
#905000
b1010000 #
b1010000 >
b1010000 B
0z
b1010000 M
b1010000 #"
b1010000 x
11
b1010000 8
b1010000 @
b1010000 _
b1010000 {
b1001010000 7
b1001010000 ?
b1010000 9
#910000
1z
01
#915000
b1010001 #
b1010001 >
b1010001 B
0z
b1010001 M
b1010001 #"
b1010001 x
11
b1010001 8
b1010001 @
b1010001 _
b1010001 {
b1001010001 7
b1001010001 ?
b1010001 9
#920000
1z
01
#925000
b1010010 #
b1010010 >
b1010010 B
0z
b1010010 M
b1010010 #"
b1010010 x
11
b1010010 8
b1010010 @
b1010010 _
b1010010 {
b1001010010 7
b1001010010 ?
b1010010 9
#930000
1z
01
#935000
b1010011 #
b1010011 >
b1010011 B
0z
b1010011 M
b1010011 #"
b1010011 x
11
b1010011 8
b1010011 @
b1010011 _
b1010011 {
b1001010011 7
b1001010011 ?
b1010011 9
#940000
1z
01
#945000
b1010100 #
b1010100 >
b1010100 B
0z
b1010100 M
b1010100 #"
b1010100 x
11
b1010100 8
b1010100 @
b1010100 _
b1010100 {
b1001010100 7
b1001010100 ?
b1010100 9
#950000
1z
01
#955000
b1010101 #
b1010101 >
b1010101 B
0z
b1010101 M
b1010101 #"
b1010101 x
11
b1010101 8
b1010101 @
b1010101 _
b1010101 {
b1001010101 7
b1001010101 ?
b1010101 9
#960000
1z
01
#965000
b1010110 #
b1010110 >
b1010110 B
0z
b1010110 M
b1010110 #"
b1010110 x
11
b1010110 8
b1010110 @
b1010110 _
b1010110 {
b1001010110 7
b1001010110 ?
b1010110 9
#970000
1z
01
#975000
b1010111 #
b1010111 >
b1010111 B
0z
b1010111 M
b1010111 #"
b1010111 x
11
b1010111 8
b1010111 @
b1010111 _
b1010111 {
b1001010111 7
b1001010111 ?
b1010111 9
#980000
1z
01
#985000
b1011000 #
b1011000 >
b1011000 B
0z
b1011000 M
b1011000 #"
b1011000 x
11
b1011000 8
b1011000 @
b1011000 _
b1011000 {
b1001011000 7
b1001011000 ?
b1011000 9
#990000
1z
01
#995000
b1011001 #
b1011001 >
b1011001 B
0z
b1011001 M
b1011001 #"
b1011001 x
11
b1011001 8
b1011001 @
b1011001 _
b1011001 {
b1001011001 7
b1001011001 ?
b1011001 9
#1000000
1z
01
#1005000
b1011010 #
b1011010 >
b1011010 B
0z
b1011010 M
b1011010 #"
b1011010 x
11
b1011010 8
b1011010 @
b1011010 _
b1011010 {
b1001011010 7
b1001011010 ?
b1011010 9
#1010000
1z
01
#1015000
b1011011 #
b1011011 >
b1011011 B
0z
b1011011 M
b1011011 #"
b1011011 x
11
b1011011 8
b1011011 @
b1011011 _
b1011011 {
b1001011011 7
b1001011011 ?
b1011011 9
#1020000
1z
01
#1025000
b1011100 #
b1011100 >
b1011100 B
0z
b1011100 M
b1011100 #"
b1011100 x
11
b1011100 8
b1011100 @
b1011100 _
b1011100 {
b1001011100 7
b1001011100 ?
b1011100 9
#1030000
1z
01
#1035000
b1011101 #
b1011101 >
b1011101 B
0z
b1011101 M
b1011101 #"
b1011101 x
11
b1011101 8
b1011101 @
b1011101 _
b1011101 {
b1001011101 7
b1001011101 ?
b1011101 9
#1040000
1z
01
#1045000
b1011110 #
b1011110 >
b1011110 B
0z
b1011110 M
b1011110 #"
b1011110 x
11
b1011110 8
b1011110 @
b1011110 _
b1011110 {
b1001011110 7
b1001011110 ?
b1011110 9
#1050000
1z
01
#1055000
b1011111 #
b1011111 >
b1011111 B
0z
b1011111 M
b1011111 #"
b1011111 x
11
b1011111 8
b1011111 @
b1011111 _
b1011111 {
b1001011111 7
b1001011111 ?
b1011111 9
#1060000
1z
01
#1065000
b1100000 #
b1100000 >
b1100000 B
0z
b1100000 M
b1100000 #"
b1100000 x
11
b1100000 8
b1100000 @
b1100000 _
b1100000 {
b1001100000 7
b1001100000 ?
b1100000 9
#1070000
1z
01
#1075000
b1100001 #
b1100001 >
b1100001 B
0z
b1100001 M
b1100001 #"
b1100001 x
11
b1100001 8
b1100001 @
b1100001 _
b1100001 {
b1001100001 7
b1001100001 ?
b1100001 9
#1080000
1z
01
#1085000
b1100010 #
b1100010 >
b1100010 B
0z
b1100010 M
b1100010 #"
b1100010 x
11
b1100010 8
b1100010 @
b1100010 _
b1100010 {
b1001100010 7
b1001100010 ?
b1100010 9
#1090000
1z
01
#1095000
b1100011 #
b1100011 >
b1100011 B
0z
b1100011 M
b1100011 #"
b1100011 x
11
b1100011 8
b1100011 @
b1100011 _
b1100011 {
b1001100011 7
b1001100011 ?
b1100011 9
#1100000
1z
01
#1105000
b1100100 #
b1100100 >
b1100100 B
0z
b1100100 M
b1100100 #"
b1100100 x
11
b1100100 8
b1100100 @
b1100100 _
b1100100 {
b1001100100 7
b1001100100 ?
b1100100 9
#1110000
1z
01
#1115000
b1100101 #
b1100101 >
b1100101 B
0z
b1100101 M
b1100101 #"
b1100101 x
11
b1100101 8
b1100101 @
b1100101 _
b1100101 {
b1001100101 7
b1001100101 ?
b1100101 9
#1120000
1z
01
#1125000
b1100110 #
b1100110 >
b1100110 B
0z
b1100110 M
b1100110 #"
b1100110 x
11
b1100110 8
b1100110 @
b1100110 _
b1100110 {
b1001100110 7
b1001100110 ?
b1100110 9
#1130000
1z
01
#1135000
b1100111 #
b1100111 >
b1100111 B
0z
b1100111 M
b1100111 #"
b1100111 x
11
b1100111 8
b1100111 @
b1100111 _
b1100111 {
b1001100111 7
b1001100111 ?
b1100111 9
#1140000
1z
01
#1145000
b1101000 #
b1101000 >
b1101000 B
0z
b1101000 M
b1101000 #"
b1101000 x
11
b1101000 8
b1101000 @
b1101000 _
b1101000 {
b1001101000 7
b1001101000 ?
b1101000 9
#1150000
1z
01
#1155000
b1101001 #
b1101001 >
b1101001 B
0z
b1101001 M
b1101001 #"
b1101001 x
11
b1101001 8
b1101001 @
b1101001 _
b1101001 {
b1001101001 7
b1001101001 ?
b1101001 9
#1160000
1z
01
#1165000
b1101010 #
b1101010 >
b1101010 B
0z
b1101010 M
b1101010 #"
b1101010 x
11
b1101010 8
b1101010 @
b1101010 _
b1101010 {
b1001101010 7
b1001101010 ?
b1101010 9
#1170000
1z
01
#1175000
b1101011 #
b1101011 >
b1101011 B
0z
b1101011 M
b1101011 #"
b1101011 x
11
b1101011 8
b1101011 @
b1101011 _
b1101011 {
b1001101011 7
b1001101011 ?
b1101011 9
#1180000
1z
01
#1185000
b1101100 #
b1101100 >
b1101100 B
0z
b1101100 M
b1101100 #"
b1101100 x
11
b1101100 8
b1101100 @
b1101100 _
b1101100 {
b1001101100 7
b1001101100 ?
b1101100 9
#1190000
1z
01
#1195000
b1101101 #
b1101101 >
b1101101 B
0z
b1101101 M
b1101101 #"
b1101101 x
11
b1101101 8
b1101101 @
b1101101 _
b1101101 {
b1001101101 7
b1001101101 ?
b1101101 9
#1200000
1z
01
